ARNT
ATF3
ATF5
BACH1
BHLHE40
BHLHE41
CACBP
CEBP
CREB1
CREB3L2
CREM
CTCF
E2F1
E2F4
E2F6
E2F7
EGR1
EGR3
EGR4
ELF1
ELF3
EOMES
EP300
ESRRA
ESRRG
ETS
ETS1
ETS2
ETV7
FEV
FIGLA
FOS
FOXA1
FOXB1
FOXD3
FOXF1
FOXG1
FOXI1
FOXP1
FUBP1
GATA2
GATA3
GFI1
GFI1B
GLI2
HDAC2
HEY1
HF1H3B
HOXD13
IRF
IRF7
IRF8
IRF9
KLF3
KLF4
MAFK
MAX
MAZ
MEF2
MEF2A
MEF2C
MEF2D
MLX
MLXIPL
MYC
MYEF2
MYOD1
MZF1
NANOG
NFE2
NFE2L1
MAFG
NFE2L2
NFIA
NFIB
NFIC
NFKB1
NFKB2
NHLH1
NKX2-2
NKX2-5
NKX3-1
NR1I2
NR2C2
NR2E1
NR2E3
NR2F2
4-Oct
PAX4
PAX5
PBX3
POU1F1
POU2F1
POU2F2
POU2F3
POU3F1
POU3F2
POU5F1
POU5F1B
PPARA
PRDM9
PROP1
RAD21
RARG
REST
RFX2
RFX3
RUNX2
RUNX3
SIX5
SMAD
SMAD1
SMAD3
SOX11
SOX15
SOX17
SOX18
SOX2
SOX21
SP2
SP8
SPDEF
SREBF1
SREBF2
SRF
SRY
STAT3
STAT4
TAF1
TBP
TBX1
TBX2
TCF12
TCF3
SPI1
TEAD1
TEAD3
TEF
TFAP4
TFE3
TFEB
THRA
THRB
TWIST1
UA5
USF
USF1
USF2
WT1
YY1
ZBTB7A
ZEB1
ZNF143
ZNF219
ZNF282
ZSCAN4
MTF1
PATZ1
RARB
SOX1
SPIB
ZNF740