TF	nhits.match	nhits.conc	emp.pctile	analysis.type	pval	FDR	HitSNPs
AIRE	1	1	1	Anystrength_TF_Concordance_InHits	1e-04	0.000314520547945205	rs73158329
ALX1	1	1	1	Anystrength_TF_Concordance_InHits	1e-04	0.000314520547945205	rs111612748
ALX3	1	1	1	Anystrength_TF_Concordance_InHits	1e-04	0.000314520547945205	rs111612748
ALX4	1	1	1	Anystrength_TF_Concordance_InHits	1e-04	0.000314520547945205	rs111612748
ARX	1	1	1	Anystrength_TF_Concordance_InHits	1e-04	0.000314520547945205	rs111612748
ASCL2	1	1	1	Anystrength_TF_Concordance_InHits	1e-04	0.000314520547945205	rs11772627
ATF4	1	1	1	Anystrength_TF_Concordance_InHits	1e-04	0.000314520547945205	rs10135727
BACH1	1	1	1	Anystrength_TF_Concordance_InHits	1e-04	0.000314520547945205	rs12497958
BACH2	1	1	1	Anystrength_TF_Concordance_InHits	1e-04	0.000314520547945205	rs12497958
BCL3	1	1	1	Anystrength_TF_Concordance_InHits	1e-04	0.000314520547945205	rs73157727
BCL6B	1	1	1	Anystrength_TF_Concordance_InHits	1e-04	0.000314520547945205	rs6500767
BCLAF1	1	1	1	Anystrength_TF_Concordance_InHits	1e-04	0.000314520547945205	rs11209722
BHLHE41	1	1	1	Anystrength_TF_Concordance_InHits	1e-04	0.000314520547945205	rs11772627
CBX5	1	1	1	Anystrength_TF_Concordance_InHits	1e-04	0.000314520547945205	rs2195271
COMP1	1	1	1	Anystrength_TF_Concordance_InHits	1e-04	0.000314520547945205	rs73158329
CTCFL	1	1	1	Anystrength_TF_Concordance_InHits	1e-04	0.000314520547945205	rs489591
DBP	1	1	1	Anystrength_TF_Concordance_InHits	1e-04	0.000314520547945205	rs12413892
DDIT3	1	1	1	Anystrength_TF_Concordance_InHits	1e-04	0.000314520547945205	rs10135727
DRGX	1	1	1	Anystrength_TF_Concordance_InHits	1e-04	0.000314520547945205	rs111612748
EBF1	1	1	1	Anystrength_TF_Concordance_InHits	1e-04	0.000314520547945205	rs4899134
EGR1	3	3	1	Anystrength_TF_Concordance_InHits	1e-04	0.000314520547945205	rs10463297,rs11209722,rs314267
EHF	2	2	1	Anystrength_TF_Concordance_InHits	1e-04	0.000314520547945205	rs10463297,rs11209722
ELF1	2	2	1	Anystrength_TF_Concordance_InHits	1e-04	0.000314520547945205	rs10463297,rs11209722
ELF2	2	2	1	Anystrength_TF_Concordance_InHits	1e-04	0.000314520547945205	rs10463297,rs17286683
ELF3	2	2	1	Anystrength_TF_Concordance_InHits	1e-04	0.000314520547945205	rs10463297,rs11209722
ELF4	1	1	1	Anystrength_TF_Concordance_InHits	1e-04	0.000314520547945205	rs11209722
ELF5	3	3	1	Anystrength_TF_Concordance_InHits	1e-04	0.000314520547945205	rs10463297,rs11209722,rs2141576
ELK1	2	2	1	Anystrength_TF_Concordance_InHits	1e-04	0.000314520547945205	rs10463297,rs11209722
ELK3	1	1	1	Anystrength_TF_Concordance_InHits	1e-04	0.000314520547945205	rs11209722
ELK4	1	1	1	Anystrength_TF_Concordance_InHits	1e-04	0.000314520547945205	rs11209722
EP300	4	4	1	Anystrength_TF_Concordance_InHits	1e-04	0.000314520547945205	rs10135727,rs12413892,rs12497958,rs9399896
ERF	1	1	1	Anystrength_TF_Concordance_InHits	1e-04	0.000314520547945205	rs11209722
ERG	2	2	1	Anystrength_TF_Concordance_InHits	1e-04	0.000314520547945205	rs10463297,rs11209722
ESRRA	1	1	1	Anystrength_TF_Concordance_InHits	1e-04	0.000314520547945205	rs34416841
ESRRB	1	1	1	Anystrength_TF_Concordance_InHits	1e-04	0.000314520547945205	rs34416841
ETS	1	1	1	Anystrength_TF_Concordance_InHits	1e-04	0.000314520547945205	rs10463297
ETS(ETS)/Promoter/Homer	1	1	1	Anystrength_TF_Concordance_InHits	1e-04	0.000314520547945205	rs11209722
ETS1	4	4	1	Anystrength_TF_Concordance_InHits	1e-04	0.000314520547945205	rs10463297,rs111612748,rs11209722,rs1152593
ETS2	1	1	1	Anystrength_TF_Concordance_InHits	1e-04	0.000314520547945205	rs10463297
ETS:RUNX(ETS,Runt)/Jurkat-RUNX1-ChIP-Seq(GSE17954)/Homer	1	1	1	Anystrength_TF_Concordance_InHits	1e-04	0.000314520547945205	rs11209722
ETV1	2	2	1	Anystrength_TF_Concordance_InHits	1e-04	0.000314520547945205	rs10463297,rs11209722
ETV2	1	1	1	Anystrength_TF_Concordance_InHits	1e-04	0.000314520547945205	rs11209722
ETV3	1	1	1	Anystrength_TF_Concordance_InHits	1e-04	0.000314520547945205	rs11209722
ETV4	2	2	1	Anystrength_TF_Concordance_InHits	1e-04	0.000314520547945205	rs10463297,rs11209722
ETV5	2	2	1	Anystrength_TF_Concordance_InHits	1e-04	0.000314520547945205	rs11209722,rs1152593
ETV6	1	1	1	Anystrength_TF_Concordance_InHits	1e-04	0.000314520547945205	rs11209722
ETV7	2	2	1	Anystrength_TF_Concordance_InHits	1e-04	0.000314520547945205	rs10463297,rs17286683
EWS:ERG-fusion(ETS)/CADO_ES1-EWS:ERG-ChIP-Seq(SRA014231)/Homer	1	1	1	Anystrength_TF_Concordance_InHits	1e-04	0.000314520547945205	rs10463297
EWS:FLI1-fusion(ETS)/SK_N_MC-EWS:FLI1-ChIP-Seq(SRA014231)/Homer	1	1	1	Anystrength_TF_Concordance_InHits	1e-04	0.000314520547945205	rs10463297
Ets1-distal(ETS)/CD4+-PolII-ChIP-Seq(Barski et al.)/Homer	1	1	1	Anystrength_TF_Concordance_InHits	1e-04	0.000314520547945205	rs10463297
FEV	2	2	1	Anystrength_TF_Concordance_InHits	1e-04	0.000314520547945205	rs10463297,rs11209722
FLI1	1	1	1	Anystrength_TF_Concordance_InHits	1e-04	0.000314520547945205	rs11209722
FOSL2	1	1	1	Anystrength_TF_Concordance_InHits	1e-04	0.000314520547945205	rs12497958
FOXA	1	1	1	Anystrength_TF_Concordance_InHits	1e-04	0.000314520547945205	rs12413892
FOXA3	1	1	1	Anystrength_TF_Concordance_InHits	1e-04	0.000314520547945205	rs12413892
FOXB1	1	1	1	Anystrength_TF_Concordance_InHits	1e-04	0.000314520547945205	rs180755508
FOXF1	1	1	1	Anystrength_TF_Concordance_InHits	1e-04	0.000314520547945205	rs6500767
FUBP1	1	1	1	Anystrength_TF_Concordance_InHits	1e-04	0.000314520547945205	rs4801117
Fox:Ebox(Forkhead,bHLH)/Panc1-Foxa2-ChIP-Seq(GSE47459)/Homer	1	1	1	Anystrength_TF_Concordance_InHits	1e-04	0.000314520547945205	rs12413892
GABP	1	1	1	Anystrength_TF_Concordance_InHits	1e-04	0.000314520547945205	rs11209722
GABPA	3	3	1	Anystrength_TF_Concordance_InHits	1e-04	0.000314520547945205	rs10463297,rs11209722,rs1152593
GABPB1+GABPB2	1	1	1	Anystrength_TF_Concordance_InHits	1e-04	0.000314520547945205	rs11209722
GATA3	2	2	1	Anystrength_TF_Concordance_InHits	1e-04	0.000314520547945205	rs17630785,rs7608024
GATA4	1	1	1	Anystrength_TF_Concordance_InHits	1e-04	0.000314520547945205	rs3758789
GTF3C2	1	1	1	Anystrength_TF_Concordance_InHits	1e-04	0.000314520547945205	rs10463297
HBP1	1	1	1	Anystrength_TF_Concordance_InHits	1e-04	0.000314520547945205	rs73158329
HEY2	1	1	1	Anystrength_TF_Concordance_InHits	1e-04	0.000314520547945205	rs7653558
HNF4G	2	2	1	Anystrength_TF_Concordance_InHits	1e-04	0.000314520547945205	rs1187224,rs12413892
HOXC8	1	1	1	Anystrength_TF_Concordance_InHits	1e-04	0.000314520547945205	rs73158329
ISX	1	1	1	Anystrength_TF_Concordance_InHits	1e-04	0.000314520547945205	rs111612748
ITGB2	1	1	1	Anystrength_TF_Concordance_InHits	1e-04	0.000314520547945205	rs1540319
JUND	1	1	1	Anystrength_TF_Concordance_InHits	1e-04	0.000314520547945205	rs2195271
KLF15	1	1	1	Anystrength_TF_Concordance_InHits	1e-04	0.000314520547945205	rs3758789
MAFA	1	1	1	Anystrength_TF_Concordance_InHits	1e-04	0.000314520547945205	rs33981648
MAFB	1	1	1	Anystrength_TF_Concordance_InHits	1e-04	0.000314520547945205	rs9669137
MAFK	1	1	1	Anystrength_TF_Concordance_InHits	1e-04	0.000314520547945205	rs12497958
MYBL1	1	1	1	Anystrength_TF_Concordance_InHits	1e-04	0.000314520547945205	rs9669137
MYF	1	1	1	Anystrength_TF_Concordance_InHits	1e-04	0.000314520547945205	rs11772627
MYF5	1	1	1	Anystrength_TF_Concordance_InHits	1e-04	0.000314520547945205	rs11772627
MYOD1	1	1	1	Anystrength_TF_Concordance_InHits	1e-04	0.000314520547945205	rs11772627
MYOG	1	1	1	Anystrength_TF_Concordance_InHits	1e-04	0.000314520547945205	rs11772627
NANOG	1	1	1	Anystrength_TF_Concordance_InHits	1e-04	0.000314520547945205	rs191959311
NEUROD1	1	1	1	Anystrength_TF_Concordance_InHits	1e-04	0.000314520547945205	rs489591
NF1:FOXA1(CTF,Forkhead)/LNCAP-FOXA1-ChIP-Seq(GSE27824)/Homer	1	1	1	Anystrength_TF_Concordance_InHits	1e-04	0.000314520547945205	rs12413892
NFKB1	1	1	1	Anystrength_TF_Concordance_InHits	1e-04	0.000314520547945205	rs4899134
NFKB2	1	1	1	Anystrength_TF_Concordance_InHits	1e-04	0.000314520547945205	rs4899134
NKX2-1	1	1	1	Anystrength_TF_Concordance_InHits	1e-04	0.000314520547945205	rs10823133
NKX2-5	1	1	1	Anystrength_TF_Concordance_InHits	1e-04	0.000314520547945205	rs10823133
NKX2-8	1	1	1	Anystrength_TF_Concordance_InHits	1e-04	0.000314520547945205	rs10823133
NR1I2	1	1	1	Anystrength_TF_Concordance_InHits	1e-04	0.000314520547945205	rs79269275
NR3C2	1	1	1	Anystrength_TF_Concordance_InHits	1e-04	0.000314520547945205	rs1656379
NR4A1	1	1	1	Anystrength_TF_Concordance_InHits	1e-04	0.000314520547945205	rs191959311
NR4A3	1	1	1	Anystrength_TF_Concordance_InHits	1e-04	0.000314520547945205	rs191959311
NRF1	1	1	1	Anystrength_TF_Concordance_InHits	1e-04	0.000314520547945205	rs11209722
OCT4-SOX2-TCF-NANOG(POU,Homeobox,HMG)/mES-Oct4-ChIP-Seq(GSE11431)/Homer	1	1	1	Anystrength_TF_Concordance_InHits	1e-04	0.000314520547945205	rs4680445
PBX2	1	1	1	Anystrength_TF_Concordance_InHits	1e-04	0.000314520547945205	rs73158329
PKNOX1	1	1	1	Anystrength_TF_Concordance_InHits	1e-04	0.000314520547945205	rs73158329
PKNOX2	1	1	1	Anystrength_TF_Concordance_InHits	1e-04	0.000314520547945205	rs73158329
PPARA	1	1	1	Anystrength_TF_Concordance_InHits	1e-04	0.000314520547945205	rs75251748
PPARG	1	1	1	Anystrength_TF_Concordance_InHits	1e-04	0.000314520547945205	rs1152593
PRDM14	1	1	1	Anystrength_TF_Concordance_InHits	1e-04	0.000314520547945205	rs73157727
PROP1	1	1	1	Anystrength_TF_Concordance_InHits	1e-04	0.000314520547945205	rs111612748
PTEN	1	1	1	Anystrength_TF_Concordance_InHits	1e-04	0.000314520547945205	rs1187224
PU1	1	1	1	Anystrength_TF_Concordance_InHits	1e-04	0.000314520547945205	rs11209722
RAD21	1	1	1	Anystrength_TF_Concordance_InHits	1e-04	0.000314520547945205	rs489591
REST	2	2	1	Anystrength_TF_Concordance_InHits	1e-04	0.000314520547945205	rs10135727,rs73157727
RXRB	1	1	1	Anystrength_TF_Concordance_InHits	1e-04	0.000314520547945205	rs34416841
SIN3A	1	1	1	Anystrength_TF_Concordance_InHits	1e-04	0.000314520547945205	rs73157727
SIX5	1	1	1	Anystrength_TF_Concordance_InHits	1e-04	0.000314520547945205	rs111612748
SMAD	1	1	1	Anystrength_TF_Concordance_InHits	1e-04	0.000314520547945205	rs62444919
SMAD1	1	1	1	Anystrength_TF_Concordance_InHits	1e-04	0.000314520547945205	rs62444919
SMAD3	1	1	1	Anystrength_TF_Concordance_InHits	1e-04	0.000314520547945205	rs62444919
SMAD4	1	1	1	Anystrength_TF_Concordance_InHits	1e-04	0.000314520547945205	rs62444919
SOX11	1	1	1	Anystrength_TF_Concordance_InHits	1e-04	0.000314520547945205	rs4680445
SOX4	1	1	1	Anystrength_TF_Concordance_InHits	1e-04	0.000314520547945205	rs4680445
SP1	5	5	1	Anystrength_TF_Concordance_InHits	1e-04	0.000314520547945205	rs12574292,rs2071164,rs301807,rs62397566,rs7653558
STAT1	1	1	1	Anystrength_TF_Concordance_InHits	1e-04	0.000314520547945205	rs10463297
STAT4	1	1	1	Anystrength_TF_Concordance_InHits	1e-04	0.000314520547945205	rs6500767
STAT5A	1	1	1	Anystrength_TF_Concordance_InHits	1e-04	0.000314520547945205	rs6500767
STAT5B	1	1	1	Anystrength_TF_Concordance_InHits	1e-04	0.000314520547945205	rs6500767
Stat3+il21(Stat)/CD4-Stat3-ChIP-Seq(GSE19198)/Homer	1	1	1	Anystrength_TF_Concordance_InHits	1e-04	0.000314520547945205	rs10463297
TAF1	1	1	1	Anystrength_TF_Concordance_InHits	1e-04	0.000314520547945205	rs11209722
TAL1	2	2	1	Anystrength_TF_Concordance_InHits	1e-04	0.000314520547945205	rs11772627,rs489591
TEF	2	2	1	Anystrength_TF_Concordance_InHits	1e-04	0.000314520547945205	rs7608024,rs9669137
TFAP2	1	1	1	Anystrength_TF_Concordance_InHits	1e-04	0.000314520547945205	rs7653558
TFAP2A	2	2	1	Anystrength_TF_Concordance_InHits	1e-04	0.000314520547945205	rs113278975,rs7653558
TFAP2B	2	2	1	Anystrength_TF_Concordance_InHits	1e-04	0.000314520547945205	rs113278975,rs7653558
TFAP2C	2	2	1	Anystrength_TF_Concordance_InHits	1e-04	0.000314520547945205	rs113278975,rs7653558
TFAP2E	1	1	1	Anystrength_TF_Concordance_InHits	1e-04	0.000314520547945205	rs7653558
TFAP4	1	1	1	Anystrength_TF_Concordance_InHits	1e-04	0.000314520547945205	rs11772627
TFCP2	1	1	1	Anystrength_TF_Concordance_InHits	1e-04	0.000314520547945205	rs11772627
TFCP2L1	1	1	1	Anystrength_TF_Concordance_InHits	1e-04	0.000314520547945205	rs1540319
THRA	1	1	1	Anystrength_TF_Concordance_InHits	1e-04	0.000314520547945205	rs61985668
TOPORS	1	1	1	Anystrength_TF_Concordance_InHits	1e-04	0.000314520547945205	rs17630785
TP53	1	1	1	Anystrength_TF_Concordance_InHits	1e-04	0.000314520547945205	rs2141576
TP63	1	1	1	Anystrength_TF_Concordance_InHits	1e-04	0.000314520547945205	rs61778711
TP73	1	1	1	Anystrength_TF_Concordance_InHits	1e-04	0.000314520547945205	rs3758789
Tbox:Smad(T-box,MAD)/ESCd5-Smad2_3-ChIP-Seq(GSE29422)/Homer	1	1	1	Anystrength_TF_Concordance_InHits	1e-04	0.000314520547945205	rs62444919
UA3	1	1	1	Anystrength_TF_Concordance_InHits	1e-04	0.000314520547945205	rs1540319
USF	1	1	1	Anystrength_TF_Concordance_InHits	1e-04	0.000314520547945205	rs1187224
VSX1	1	1	1	Anystrength_TF_Concordance_InHits	1e-04	0.000314520547945205	rs4680445
YY1	1	1	1	Anystrength_TF_Concordance_InHits	1e-04	0.000314520547945205	rs12246428
YY2	2	2	1	Anystrength_TF_Concordance_InHits	1e-04	0.000314520547945205	rs12246428,rs61778711
ZBTB16	1	1	1	Anystrength_TF_Concordance_InHits	1e-04	0.000314520547945205	rs7608024
ZBTB33	1	1	1	Anystrength_TF_Concordance_InHits	1e-04	0.000314520547945205	rs489591
ZBTB4	1	1	1	Anystrength_TF_Concordance_InHits	1e-04	0.000314520547945205	rs9399896
ZFX	1	1	1	Anystrength_TF_Concordance_InHits	1e-04	0.000314520547945205	rs113278975
ZIC1	1	1	1	Anystrength_TF_Concordance_InHits	1e-04	0.000314520547945205	rs489591
ZIC3	1	1	1	Anystrength_TF_Concordance_InHits	1e-04	0.000314520547945205	rs489591
ZIC4	2	2	1	Anystrength_TF_Concordance_InHits	1e-04	0.000314520547945205	rs489591,rs7653558
ZNF148	1	1	1	Anystrength_TF_Concordance_InHits	1e-04	0.000314520547945205	rs12574292
ZNF281	1	1	1	Anystrength_TF_Concordance_InHits	1e-04	0.000314520547945205	rs12574292
ZNF740	1	1	1	Anystrength_TF_Concordance_InHits	1e-04	0.000314520547945205	rs12574292
v-Maf	1	1	1	Anystrength_TF_Concordance_InHits	1e-04	0.000314520547945205	rs33981648
ASCL2	1	1	1	Strong_TF_Concordance_InHits	1e-04	0.000314520547945205	rs11772627
ATF4	1	1	1	Strong_TF_Concordance_InHits	1e-04	0.000314520547945205	rs10135727
BACH2	1	1	1	Strong_TF_Concordance_InHits	1e-04	0.000314520547945205	rs12497958
BCL3	1	1	1	Strong_TF_Concordance_InHits	1e-04	0.000314520547945205	rs73157727
BCL6B	1	1	1	Strong_TF_Concordance_InHits	1e-04	0.000314520547945205	rs6500767
BCLAF1	1	1	1	Strong_TF_Concordance_InHits	1e-04	0.000314520547945205	rs11209722
BHLHE41	1	1	1	Strong_TF_Concordance_InHits	1e-04	0.000314520547945205	rs11772627
CTCFL	1	1	1	Strong_TF_Concordance_InHits	1e-04	0.000314520547945205	rs489591
DDIT3	1	1	1	Strong_TF_Concordance_InHits	1e-04	0.000314520547945205	rs10135727
E2F1	1	1	1	Strong_TF_Concordance_InHits	1e-04	0.000314520547945205	rs6769609
EBF1	1	1	1	Strong_TF_Concordance_InHits	1e-04	0.000314520547945205	rs4899134
EGR1	3	3	1	Strong_TF_Concordance_InHits	1e-04	0.000314520547945205	rs10463297,rs11209722,rs314267
EHF	2	2	1	Strong_TF_Concordance_InHits	1e-04	0.000314520547945205	rs10463297,rs11209722
ELF1	2	2	1	Strong_TF_Concordance_InHits	1e-04	0.000314520547945205	rs10463297,rs11209722
ELF2	2	2	1	Strong_TF_Concordance_InHits	1e-04	0.000314520547945205	rs10463297,rs17286683
ELF3	1	1	1	Strong_TF_Concordance_InHits	1e-04	0.000314520547945205	rs11209722
ELF4	1	1	1	Strong_TF_Concordance_InHits	1e-04	0.000314520547945205	rs11209722
ELF5	3	3	1	Strong_TF_Concordance_InHits	1e-04	0.000314520547945205	rs10463297,rs11209722,rs2141576
ELK1	1	1	1	Strong_TF_Concordance_InHits	1e-04	0.000314520547945205	rs11209722
ELK3	1	1	1	Strong_TF_Concordance_InHits	1e-04	0.000314520547945205	rs11209722
ELK4	1	1	1	Strong_TF_Concordance_InHits	1e-04	0.000314520547945205	rs11209722
EP300	2	2	1	Strong_TF_Concordance_InHits	1e-04	0.000314520547945205	rs12497958,rs9399896
ERF	1	1	1	Strong_TF_Concordance_InHits	1e-04	0.000314520547945205	rs11209722
ERG	2	2	1	Strong_TF_Concordance_InHits	1e-04	0.000314520547945205	rs10463297,rs11209722
ESRRA	1	1	1	Strong_TF_Concordance_InHits	1e-04	0.000314520547945205	rs34416841
ESRRB	1	1	1	Strong_TF_Concordance_InHits	1e-04	0.000314520547945205	rs34416841
ETS(ETS)/Promoter/Homer	1	1	1	Strong_TF_Concordance_InHits	1e-04	0.000314520547945205	rs11209722
ETS1	4	4	1	Strong_TF_Concordance_InHits	1e-04	0.000314520547945205	rs10463297,rs111612748,rs11209722,rs1152593
ETS2	1	1	1	Strong_TF_Concordance_InHits	1e-04	0.000314520547945205	rs10463297
ETS:RUNX(ETS,Runt)/Jurkat-RUNX1-ChIP-Seq(GSE17954)/Homer	1	1	1	Strong_TF_Concordance_InHits	1e-04	0.000314520547945205	rs11209722
ETV1	1	1	1	Strong_TF_Concordance_InHits	1e-04	0.000314520547945205	rs11209722
ETV2	1	1	1	Strong_TF_Concordance_InHits	1e-04	0.000314520547945205	rs11209722
ETV3	1	1	1	Strong_TF_Concordance_InHits	1e-04	0.000314520547945205	rs11209722
ETV4	1	1	1	Strong_TF_Concordance_InHits	1e-04	0.000314520547945205	rs11209722
ETV5	2	2	1	Strong_TF_Concordance_InHits	1e-04	0.000314520547945205	rs11209722,rs1152593
ETV6	1	1	1	Strong_TF_Concordance_InHits	1e-04	0.000314520547945205	rs11209722
ETV7	2	2	1	Strong_TF_Concordance_InHits	1e-04	0.000314520547945205	rs10463297,rs17286683
EWS:ERG-fusion(ETS)/CADO_ES1-EWS:ERG-ChIP-Seq(SRA014231)/Homer	1	1	1	Strong_TF_Concordance_InHits	1e-04	0.000314520547945205	rs10463297
EWS:FLI1-fusion(ETS)/SK_N_MC-EWS:FLI1-ChIP-Seq(SRA014231)/Homer	1	1	1	Strong_TF_Concordance_InHits	1e-04	0.000314520547945205	rs10463297
FEV	2	2	1	Strong_TF_Concordance_InHits	1e-04	0.000314520547945205	rs10463297,rs11209722
FLI1	1	1	1	Strong_TF_Concordance_InHits	1e-04	0.000314520547945205	rs11209722
FOSL2	1	1	1	Strong_TF_Concordance_InHits	1e-04	0.000314520547945205	rs12497958
FOXA	1	1	1	Strong_TF_Concordance_InHits	1e-04	0.000314520547945205	rs12413892
FOXA1	1	1	1	Strong_TF_Concordance_InHits	1e-04	0.000314520547945205	rs12413892
FOXF1	1	1	1	Strong_TF_Concordance_InHits	1e-04	0.000314520547945205	rs6500767
FUBP1	1	1	1	Strong_TF_Concordance_InHits	1e-04	0.000314520547945205	rs4801117
GABP	1	1	1	Strong_TF_Concordance_InHits	1e-04	0.000314520547945205	rs11209722
GABPA	2	2	1	Strong_TF_Concordance_InHits	1e-04	0.000314520547945205	rs11209722,rs1152593
GABPB1+GABPB2	1	1	1	Strong_TF_Concordance_InHits	1e-04	0.000314520547945205	rs11209722
GATA3	2	2	1	Strong_TF_Concordance_InHits	1e-04	0.000314520547945205	rs17630785,rs7608024
HNF4G	1	1	1	Strong_TF_Concordance_InHits	1e-04	0.000314520547945205	rs12413892
ITGB2	1	1	1	Strong_TF_Concordance_InHits	1e-04	0.000314520547945205	rs1540319
JUND	1	1	1	Strong_TF_Concordance_InHits	1e-04	0.000314520547945205	rs2195271
MAF	1	1	1	Strong_TF_Concordance_InHits	1e-04	0.000314520547945205	rs33981648
MAFA	1	1	1	Strong_TF_Concordance_InHits	1e-04	0.000314520547945205	rs33981648
MECOM	1	1	1	Strong_TF_Concordance_InHits	1e-04	0.000314520547945205	rs7608024
MYBL1	1	1	1	Strong_TF_Concordance_InHits	1e-04	0.000314520547945205	rs9669137
MYC	1	1	1	Strong_TF_Concordance_InHits	1e-04	0.000314520547945205	rs34416841
MYF	1	1	1	Strong_TF_Concordance_InHits	1e-04	0.000314520547945205	rs11772627
MYF5	1	1	1	Strong_TF_Concordance_InHits	1e-04	0.000314520547945205	rs11772627
MYOD1	1	1	1	Strong_TF_Concordance_InHits	1e-04	0.000314520547945205	rs11772627
MYOG	1	1	1	Strong_TF_Concordance_InHits	1e-04	0.000314520547945205	rs11772627
NFKB1	1	1	1	Strong_TF_Concordance_InHits	1e-04	0.000314520547945205	rs4899134
NFKB2	1	1	1	Strong_TF_Concordance_InHits	1e-04	0.000314520547945205	rs4899134
NKX2-1	1	1	1	Strong_TF_Concordance_InHits	1e-04	0.000314520547945205	rs10823133
NKX2-5	1	1	1	Strong_TF_Concordance_InHits	1e-04	0.000314520547945205	rs10823133
NKX2-8	1	1	1	Strong_TF_Concordance_InHits	1e-04	0.000314520547945205	rs10823133
NR3C2	1	1	1	Strong_TF_Concordance_InHits	1e-04	0.000314520547945205	rs1656379
NR4A1	1	1	1	Strong_TF_Concordance_InHits	1e-04	0.000314520547945205	rs191959311
NRF1	1	1	1	Strong_TF_Concordance_InHits	1e-04	0.000314520547945205	rs11209722
PAX5	1	1	1	Strong_TF_Concordance_InHits	1e-04	0.000314520547945205	rs11209722
PBX1	1	1	1	Strong_TF_Concordance_InHits	1e-04	0.000314520547945205	rs73158329
PBX2	1	1	1	Strong_TF_Concordance_InHits	1e-04	0.000314520547945205	rs73158329
PKNOX1	1	1	1	Strong_TF_Concordance_InHits	1e-04	0.000314520547945205	rs73158329
PKNOX2	1	1	1	Strong_TF_Concordance_InHits	1e-04	0.000314520547945205	rs73158329
PPARG	1	1	1	Strong_TF_Concordance_InHits	1e-04	0.000314520547945205	rs1152593
PTEN	1	1	1	Strong_TF_Concordance_InHits	1e-04	0.000314520547945205	rs1187224
PU1	1	1	1	Strong_TF_Concordance_InHits	1e-04	0.000314520547945205	rs11209722
RARA	3	3	1	Strong_TF_Concordance_InHits	1e-04	0.000314520547945205	rs13330178,rs34416841,rs79269275
RARB	2	2	1	Strong_TF_Concordance_InHits	1e-04	0.000314520547945205	rs34416841,rs79269275
REST	2	2	1	Strong_TF_Concordance_InHits	1e-04	0.000314520547945205	rs10135727,rs73157727
SIN3A	1	1	1	Strong_TF_Concordance_InHits	1e-04	0.000314520547945205	rs73157727
SIX5	1	1	1	Strong_TF_Concordance_InHits	1e-04	0.000314520547945205	rs111612748
SMAD	1	1	1	Strong_TF_Concordance_InHits	1e-04	0.000314520547945205	rs62444919
SMAD1	1	1	1	Strong_TF_Concordance_InHits	1e-04	0.000314520547945205	rs62444919
SMAD3	1	1	1	Strong_TF_Concordance_InHits	1e-04	0.000314520547945205	rs62444919
SMAD4	1	1	1	Strong_TF_Concordance_InHits	1e-04	0.000314520547945205	rs62444919
SMC3	1	1	1	Strong_TF_Concordance_InHits	1e-04	0.000314520547945205	rs6977733
SOX11	1	1	1	Strong_TF_Concordance_InHits	1e-04	0.000314520547945205	rs4680445
SOX4	1	1	1	Strong_TF_Concordance_InHits	1e-04	0.000314520547945205	rs4680445
SP1	5	5	1	Strong_TF_Concordance_InHits	1e-04	0.000314520547945205	rs12574292,rs2071164,rs301807,rs62397566,rs7653558
SPIB	1	1	1	Strong_TF_Concordance_InHits	1e-04	0.000314520547945205	rs11209722
SPIC	1	1	1	Strong_TF_Concordance_InHits	1e-04	0.000314520547945205	rs11209722
STAT1	1	1	1	Strong_TF_Concordance_InHits	1e-04	0.000314520547945205	rs10463297
STAT3	3	3	1	Strong_TF_Concordance_InHits	1e-04	0.000314520547945205	rs10463297,rs1540319,rs9284880
STAT4	1	1	1	Strong_TF_Concordance_InHits	1e-04	0.000314520547945205	rs6500767
STAT5A	1	1	1	Strong_TF_Concordance_InHits	1e-04	0.000314520547945205	rs6500767
STAT5B	1	1	1	Strong_TF_Concordance_InHits	1e-04	0.000314520547945205	rs6500767
Stat3+il21(Stat)/CD4-Stat3-ChIP-Seq(GSE19198)/Homer	1	1	1	Strong_TF_Concordance_InHits	1e-04	0.000314520547945205	rs10463297
TAF1	1	1	1	Strong_TF_Concordance_InHits	1e-04	0.000314520547945205	rs11209722
TAL1	1	1	1	Strong_TF_Concordance_InHits	1e-04	0.000314520547945205	rs489591
TFAP2	1	1	1	Strong_TF_Concordance_InHits	1e-04	0.000314520547945205	rs7653558
TFAP2A	2	2	1	Strong_TF_Concordance_InHits	1e-04	0.000314520547945205	rs113278975,rs7653558
TFAP2B	2	2	1	Strong_TF_Concordance_InHits	1e-04	0.000314520547945205	rs113278975,rs7653558
TFAP2C	2	2	1	Strong_TF_Concordance_InHits	1e-04	0.000314520547945205	rs113278975,rs7653558
TFAP2E	1	1	1	Strong_TF_Concordance_InHits	1e-04	0.000314520547945205	rs7653558
TFAP4	1	1	1	Strong_TF_Concordance_InHits	1e-04	0.000314520547945205	rs11772627
THRB	1	1	1	Strong_TF_Concordance_InHits	1e-04	0.000314520547945205	rs11766575
TOPORS	1	1	1	Strong_TF_Concordance_InHits	1e-04	0.000314520547945205	rs17630785
TP63	1	1	1	Strong_TF_Concordance_InHits	1e-04	0.000314520547945205	rs61778711
TP73	1	1	1	Strong_TF_Concordance_InHits	1e-04	0.000314520547945205	rs3758789
Tbox:Smad(T-box,MAD)/ESCd5-Smad2_3-ChIP-Seq(GSE29422)/Homer	1	1	1	Strong_TF_Concordance_InHits	1e-04	0.000314520547945205	rs62444919
UA3	1	1	1	Strong_TF_Concordance_InHits	1e-04	0.000314520547945205	rs1540319
UA7	1	1	1	Strong_TF_Concordance_InHits	1e-04	0.000314520547945205	rs2195271
USF	1	1	1	Strong_TF_Concordance_InHits	1e-04	0.000314520547945205	rs1187224
VSX1	1	1	1	Strong_TF_Concordance_InHits	1e-04	0.000314520547945205	rs4680445
YY1	1	1	1	Strong_TF_Concordance_InHits	1e-04	0.000314520547945205	rs12246428
YY2	1	1	1	Strong_TF_Concordance_InHits	1e-04	0.000314520547945205	rs61778711
ZBTB16	1	1	1	Strong_TF_Concordance_InHits	1e-04	0.000314520547945205	rs7608024
ZBTB33	1	1	1	Strong_TF_Concordance_InHits	1e-04	0.000314520547945205	rs489591
ZBTB4	1	1	1	Strong_TF_Concordance_InHits	1e-04	0.000314520547945205	rs9399896
ZFX	1	1	1	Strong_TF_Concordance_InHits	1e-04	0.000314520547945205	rs113278975
ZIC1	1	1	1	Strong_TF_Concordance_InHits	1e-04	0.000314520547945205	rs489591
ZIC3	1	1	1	Strong_TF_Concordance_InHits	1e-04	0.000314520547945205	rs489591
ZIC4	1	1	1	Strong_TF_Concordance_InHits	1e-04	0.000314520547945205	rs7653558
ZNF148	1	1	1	Strong_TF_Concordance_InHits	1e-04	0.000314520547945205	rs12574292
ZNF219	1	1	1	Strong_TF_Concordance_InHits	1e-04	0.000314520547945205	rs301807
ZNF281	1	1	1	Strong_TF_Concordance_InHits	1e-04	0.000314520547945205	rs12574292
v-Maf	1	1	1	Strong_TF_Concordance_InHits	1e-04	0.000314520547945205	rs33981648
AR	2	NA	0.9965	Anystrength_TF_Freq_InHits	0.0069999999999999	0.0196960784313723	rs1656379,rs4680445
CDX1	1	NA	0.993	Anystrength_TF_Freq_InHits	0.014	0.0341231422505308	rs17286683
COMP1	1	NA	1	Anystrength_TF_Freq_InHits	1e-04	0.000314520547945205	rs73158329
DBP	1	NA	0.9945	Anystrength_TF_Freq_InHits	0.0109999999999999	0.029573770491803	rs12413892
E4F1	1	NA	0.9947	Anystrength_TF_Freq_InHits	0.0105999999999999	0.0286999999999998	rs10135727
ELF2	2	NA	0.9999	Anystrength_TF_Freq_InHits	0.000199999999999978	0.000618867924528234	rs10463297,rs17286683
ELF4	1	NA	0.9944	Anystrength_TF_Freq_InHits	0.0112000000000001	0.0296942263279448	rs11209722
ELF5	3	NA	0.999	Anystrength_TF_Freq_InHits	0.002	0.00588717948717949	rs10463297,rs11209722,rs2141576
ELK1	2	NA	1	Anystrength_TF_Freq_InHits	1e-04	0.000314520547945205	rs10463297,rs11209722
ELK4	1	NA	1	Anystrength_TF_Freq_InHits	1e-04	0.000314520547945205	rs11209722
EN1	1	NA	0.9943	Anystrength_TF_Freq_InHits	0.0114000000000001	0.0301548387096776	rs33981648
EOMES	4	NA	0.9989	Anystrength_TF_Freq_InHits	0.00219999999999998	0.00642646310432564	rs10135727,rs11209722,rs61985668,rs9284880
ERF	1	NA	1	Anystrength_TF_Freq_InHits	1e-04	0.000314520547945205	rs11209722
ETS(ETS)/Promoter/Homer	1	NA	1	Anystrength_TF_Freq_InHits	1e-04	0.000314520547945205	rs11209722
ETS2	1	NA	0.9939	Anystrength_TF_Freq_InHits	0.0122	0.0313324384787472	rs10463297
ETV1	2	NA	1	Anystrength_TF_Freq_InHits	1e-04	0.000314520547945205	rs10463297,rs11209722
ETV2	1	NA	1	Anystrength_TF_Freq_InHits	1e-04	0.000314520547945205	rs11209722
ETV3	1	NA	1	Anystrength_TF_Freq_InHits	1e-04	0.000314520547945205	rs11209722
ETV4	2	NA	1	Anystrength_TF_Freq_InHits	1e-04	0.000314520547945205	rs10463297,rs11209722
ETV5	2	NA	1	Anystrength_TF_Freq_InHits	1e-04	0.000314520547945205	rs11209722,rs1152593
FEV	2	NA	0.9982	Anystrength_TF_Freq_InHits	0.00360000000000005	0.0102805970149255	rs10463297,rs11209722
FOSL2	1	NA	1	Anystrength_TF_Freq_InHits	1e-04	0.000314520547945205	rs12497958
FOXA3	1	NA	0.9937	Anystrength_TF_Freq_InHits	0.0125999999999999	0.0319311258278144	rs12413892
FOXD1	1	NA	0.9936	Anystrength_TF_Freq_InHits	0.0127999999999999	0.0322953846153844	rs1152593
FOXG1	1	NA	9e-04	Anystrength_TF_Freq_InHits	0.0018	0.00531208226221087	rs10447541
FOXK1	2	NA	0.9956	Anystrength_TF_Freq_InHits	0.00879999999999992	0.0246399999999998	rs10447541,rs11075924
GABPA	3	NA	0.9993	Anystrength_TF_Freq_InHits	0.00140000000000007	0.00416373056994839	rs10463297,rs11209722,rs1152593
GABPB1+GABPB2	1	NA	1	Anystrength_TF_Freq_InHits	1e-04	0.000314520547945205	rs11209722
HBP1	1	NA	0.9934	Anystrength_TF_Freq_InHits	0.0132000000000001	0.0331588621444204	rs73158329
HIC2	1	NA	0.9924	Anystrength_TF_Freq_InHits	0.0152000000000001	0.036658823529412	rs6769609
HMX3	1	NA	0.9949	Anystrength_TF_Freq_InHits	0.0102	0.02788	rs4680445
HOXA10	1	NA	0.9924	Anystrength_TF_Freq_InHits	0.0152000000000001	0.036658823529412	rs17286683
HOXA2	1	NA	0.9932	Anystrength_TF_Freq_InHits	0.0136000000000001	0.0332895522388061	rs6977733
HOXA7	2	NA	1	Anystrength_TF_Freq_InHits	1e-04	0.000314520547945205	rs3800872,rs73158329
HOXD9	1	NA	1	Anystrength_TF_Freq_InHits	1e-04	0.000314520547945205	rs17286683
IRF1	1	NA	2e-04	Anystrength_TF_Freq_InHits	4e-04	0.00121803713527851	rs2071164
ITGB2	1	NA	0.9932	Anystrength_TF_Freq_InHits	0.0136000000000001	0.0332895522388061	rs1540319
MECOM	2	NA	0.9937	Anystrength_TF_Freq_InHits	0.0125999999999999	0.0319311258278144	rs142530641,rs7608024
MEIS1	3	NA	0.9997	Anystrength_TF_Freq_InHits	0.000599999999999934	0.00181263157894717	rs2888389,rs489591,rs73158329
MYF	1	NA	1	Anystrength_TF_Freq_InHits	1e-04	0.000314520547945205	rs11772627
NFE2L2	3	NA	0.9998	Anystrength_TF_Freq_InHits	0.000399999999999956	0.00121803713527851	rs11209722,rs12497958,rs2888389
NFIC	4	NA	1	Anystrength_TF_Freq_InHits	1e-04	0.000314520547945205	rs12246428,rs17630785,rs7513962,rs7525653
NFKB1	1	NA	5e-04	Anystrength_TF_Freq_InHits	0.001	0.00298958333333333	rs4899134
NR1H	2	NA	0.9983	Anystrength_TF_Freq_InHits	0.00340000000000007	0.00973366583541167	rs56360035,rs79269275
NR2E1	2	NA	0.9922	Anystrength_TF_Freq_InHits	0.0156000000000001	0.0373878914405012	rs12246428,rs34416841
NR2F1	3	NA	0.9932	Anystrength_TF_Freq_InHits	0.0136000000000001	0.0332895522388061	rs13330178,rs250427,rs34416841
NR3C1	5	NA	0.9989	Anystrength_TF_Freq_InHits	0.00219999999999998	0.00642646310432564	rs10463297,rs1656379,rs2141575,rs73157727,rs73172122
NR3C2	1	NA	1	Anystrength_TF_Freq_InHits	1e-04	0.000314520547945205	rs1656379
PAX3	1	NA	0.9955	Anystrength_TF_Freq_InHits	0.0089999999999999	0.0250776699029123	rs10135727
PBX	1	NA	0.9937	Anystrength_TF_Freq_InHits	0.0125999999999999	0.0319311258278144	rs6977733
PBX2	1	NA	1	Anystrength_TF_Freq_InHits	1e-04	0.000314520547945205	rs73158329
PDX1	2	NA	1	Anystrength_TF_Freq_InHits	1e-04	0.000314520547945205	rs6977733,rs9399896
PGR	2	NA	1	Anystrength_TF_Freq_InHits	1e-04	0.000314520547945205	rs1656379,rs2141575
POU2F3	1	NA	1	Anystrength_TF_Freq_InHits	1e-04	0.000314520547945205	rs7525653
POU3F4	1	NA	0.9942	Anystrength_TF_Freq_InHits	0.0116000000000001	0.0306133333333335	rs7525653
POU5F1B	1	NA	0.9947	Anystrength_TF_Freq_InHits	0.0105999999999999	0.0286999999999998	rs7525653
PRDM1	3	NA	0.998	Anystrength_TF_Freq_InHits	0.004	0.0113663366336634	rs11209722,rs4801117,rs56360035
Pax7(Paired,Homeobox),longest/Myoblast-Pax7-ChIP-Seq(GSE25064)/Homer	1	NA	0.9951	Anystrength_TF_Freq_InHits	0.00980000000000003	0.0270442307692309	rs33981648
RAD21	1	NA	7e-04	Anystrength_TF_Freq_InHits	0.0014	0.00416373056994839	rs489591
REST	2	NA	2e-04	Anystrength_TF_Freq_InHits	4e-04	0.00121803713527851	rs10135727,rs73157727
SMAD	1	NA	0.9948	Anystrength_TF_Freq_InHits	0.0104	0.0283591448931115	rs62444919
SMAD1	1	NA	0.9941	Anystrength_TF_Freq_InHits	0.0118	0.0308574031890661	rs62444919
SP2	4	NA	0.9992	Anystrength_TF_Freq_InHits	0.00160000000000005	0.0047462532299743	rs2071164,rs301807,rs62444919,rs9669137
SP3	4	NA	0.9965	Anystrength_TF_Freq_InHits	0.0069999999999999	0.0196960784313723	rs12574292,rs2071164,rs2195271,rs301807
SPI1	5	NA	0.9953	Anystrength_TF_Freq_InHits	0.00940000000000007	0.026065700483092	rs10463297,rs11209722,rs1540319,rs301807,rs7608024
SREBF	3	NA	1	Anystrength_TF_Freq_InHits	1e-04	0.000314520547945205	rs13330178,rs75251748,rs79269275
SREBF1	5	NA	0.9998	Anystrength_TF_Freq_InHits	0.000399999999999956	0.00121803713527851	rs12574292,rs13330178,rs4899134,rs61985668,rs79269275
SREBF2	4	NA	0.9998	Anystrength_TF_Freq_InHits	0.000399999999999956	0.00121803713527851	rs12574292,rs13330178,rs4899134,rs79269275
STAT5A	1	NA	0.0012	Anystrength_TF_Freq_InHits	0.0024	0.00695757575757576	rs6500767
STAT5B	1	NA	0.0012	Anystrength_TF_Freq_InHits	0.0024	0.00695757575757576	rs6500767
STAT6	1	NA	0.9932	Anystrength_TF_Freq_InHits	0.0136000000000001	0.0332895522388061	rs6500767
STAT6(Stat)/Macrophage-Stat6-ChIP-Seq(GSE38377)/Homer	1	NA	0.9932	Anystrength_TF_Freq_InHits	0.0136000000000001	0.0332895522388061	rs6500767
Stat3+il21(Stat)/CD4-Stat3-ChIP-Seq(GSE19198)/Homer	1	NA	0.9926	Anystrength_TF_Freq_InHits	0.0147999999999999	0.0359966101694913	rs10463297
TBX3	1	NA	1	Anystrength_TF_Freq_InHits	1e-04	0.000314520547945205	rs10135727
TCF3	6	NA	0.9996	Anystrength_TF_Freq_InHits	0.000799999999999912	0.00240418848167513	rs10823133,rs11772627,rs314267,rs4899134,rs6464284,rs6769609
TEF	2	NA	0.996	Anystrength_TF_Freq_InHits	0.00800000000000001	0.0224547677261614	rs7608024,rs9669137
TFAP2B	2	NA	0.9923	Anystrength_TF_Freq_InHits	0.0154000000000001	0.0370633123689729	rs113278975,rs7653558
TFEC	1	NA	0.0012	Anystrength_TF_Freq_InHits	0.0024	0.00695757575757576	rs4899134
THRB	4	NA	0.9997	Anystrength_TF_Freq_InHits	0.000599999999999934	0.00181263157894717	rs113278975,rs11766575,rs13330178,rs61985668
TP73	1	NA	1	Anystrength_TF_Freq_InHits	1e-04	0.000314520547945205	rs3758789
Tbox:Smad(T-box,MAD)/ESCd5-Smad2_3-ChIP-Seq(GSE29422)/Homer	1	NA	0.9944	Anystrength_TF_Freq_InHits	0.0112000000000001	0.0296942263279448	rs62444919
UA7	2	NA	1	Anystrength_TF_Freq_InHits	1e-04	0.000314520547945205	rs2195271,rs56051015
UA8	1	NA	1	Anystrength_TF_Freq_InHits	1e-04	0.000314520547945205	rs369065
VSX1	1	NA	1	Anystrength_TF_Freq_InHits	1e-04	0.000314520547945205	rs4680445
YY2	2	NA	1	Anystrength_TF_Freq_InHits	1e-04	0.000314520547945205	rs12246428,rs61778711
ZBTB7A	3	NA	0.995	Anystrength_TF_Freq_InHits	0.01	0.0275299760191847	rs62444919,rs6464284,rs6769609
ZEB1	6	NA	1	Anystrength_TF_Freq_InHits	1e-04	0.000314520547945205	rs10823133,rs314267,rs4899134,rs61985668,rs6464284,rs6769609
ZIC4	2	NA	1	Anystrength_TF_Freq_InHits	1e-04	0.000314520547945205	rs489591,rs7653558
v-Maf	1	NA	0.9933	Anystrength_TF_Freq_InHits	0.0134000000000001	0.0332895522388061	rs33981648
AR	2	NA	1	Strong_TF_Freq_Inhits	1e-04	0.000314520547945205	rs1656379,rs4680445
ARID3A	1	NA	0.9937	Strong_TF_Freq_Inhits	0.0125999999999999	0.0319311258278144	rs180755508
BCLAF1	1	NA	1	Strong_TF_Freq_Inhits	1e-04	0.000314520547945205	rs11209722
CDX1	1	NA	1	Strong_TF_Freq_Inhits	1e-04	0.000314520547945205	rs17286683
CDX2	1	NA	1	Strong_TF_Freq_Inhits	1e-04	0.000314520547945205	rs17286683
CREB3L2	2	NA	0.9987	Strong_TF_Freq_Inhits	0.00259999999999994	0.00751838790931971	rs12497958,rs56051015
E4F1	1	NA	0.9947	Strong_TF_Freq_Inhits	0.0105999999999999	0.0286999999999998	rs10135727
EHF	2	NA	0.9966	Strong_TF_Freq_Inhits	0.00679999999999992	0.0192275862068963	rs10463297,rs11209722
ELF1	2	NA	0.9925	Strong_TF_Freq_Inhits	0.0149999999999999	0.0364059196617334	rs10463297,rs11209722
ELF2	2	NA	0.9999	Strong_TF_Freq_Inhits	0.000199999999999978	0.000618867924528234	rs10463297,rs17286683
ELF4	1	NA	0.9944	Strong_TF_Freq_Inhits	0.0112000000000001	0.0296942263279448	rs11209722
ELF5	3	NA	0.9999	Strong_TF_Freq_Inhits	0.000199999999999978	0.000618867924528234	rs10463297,rs11209722,rs2141576
ELK1	1	NA	1	Strong_TF_Freq_Inhits	1e-04	0.000314520547945205	rs11209722
ELK3	1	NA	0.9944	Strong_TF_Freq_Inhits	0.0112000000000001	0.0296942263279448	rs11209722
ELK4	1	NA	1	Strong_TF_Freq_Inhits	1e-04	0.000314520547945205	rs11209722
EOMES	4	NA	1	Strong_TF_Freq_Inhits	1e-04	0.000314520547945205	rs10135727,rs11209722,rs61985668,rs9284880
ERF	1	NA	1	Strong_TF_Freq_Inhits	1e-04	0.000314520547945205	rs11209722
ERG	2	NA	0.9918	Strong_TF_Freq_Inhits	0.0164	0.0392233333333333	rs10463297,rs11209722
ETS(ETS)/Promoter/Homer	1	NA	1	Strong_TF_Freq_Inhits	1e-04	0.000314520547945205	rs11209722
ETS1	4	NA	0.9995	Strong_TF_Freq_Inhits	0.00099999999999989	0.00298958333333333	rs10463297,rs111612748,rs11209722,rs1152593
ETS2	1	NA	0.9939	Strong_TF_Freq_Inhits	0.0122	0.0313324384787472	rs10463297
ETV1	1	NA	1	Strong_TF_Freq_Inhits	1e-04	0.000314520547945205	rs11209722
ETV2	1	NA	1	Strong_TF_Freq_Inhits	1e-04	0.000314520547945205	rs11209722
ETV3	1	NA	1	Strong_TF_Freq_Inhits	1e-04	0.000314520547945205	rs11209722
ETV4	1	NA	1	Strong_TF_Freq_Inhits	1e-04	0.000314520547945205	rs11209722
ETV5	2	NA	1	Strong_TF_Freq_Inhits	1e-04	0.000314520547945205	rs11209722,rs1152593
ETV6	1	NA	1	Strong_TF_Freq_Inhits	1e-04	0.000314520547945205	rs11209722
ETV7	2	NA	0.9953	Strong_TF_Freq_Inhits	0.00940000000000007	0.026065700483092	rs10463297,rs17286683
EWS:FLI1-fusion(ETS)/SK_N_MC-EWS:FLI1-ChIP-Seq(SRA014231)/Homer	1	NA	1	Strong_TF_Freq_Inhits	1e-04	0.000314520547945205	rs10463297
FEV	2	NA	0.9996	Strong_TF_Freq_Inhits	0.000799999999999912	0.00240418848167513	rs10463297,rs11209722
FIGLA	2	NA	0.9969	Strong_TF_Freq_Inhits	0.00619999999999998	0.0175743209876543	rs314267,rs6464284
FOSL2	1	NA	1	Strong_TF_Freq_Inhits	1e-04	0.000314520547945205	rs12497958
FOXA	1	NA	1	Strong_TF_Freq_Inhits	1e-04	0.000314520547945205	rs12413892
FOXC2	1	NA	1	Strong_TF_Freq_Inhits	1e-04	0.000314520547945205	rs1152593
FOXD1	1	NA	0.9936	Strong_TF_Freq_Inhits	0.0127999999999999	0.0322953846153844	rs1152593
FOXF2	1	NA	0.9945	Strong_TF_Freq_Inhits	0.0109999999999999	0.029573770491803	rs1152593
FOXK1	1	NA	0.9939	Strong_TF_Freq_Inhits	0.0122	0.0313324384787472	rs10447541
FUBP1	1	NA	1	Strong_TF_Freq_Inhits	1e-04	0.000314520547945205	rs4801117
GABP	1	NA	1	Strong_TF_Freq_Inhits	1e-04	0.000314520547945205	rs11209722
GABPA	2	NA	0.9986	Strong_TF_Freq_Inhits	0.00279999999999991	0.00803599999999975	rs11209722,rs1152593
GABPB1+GABPB2	1	NA	1	Strong_TF_Freq_Inhits	1e-04	0.000314520547945205	rs11209722
HIC2	1	NA	0.9924	Strong_TF_Freq_Inhits	0.0152000000000001	0.036658823529412	rs6769609
HMX3	1	NA	0.9949	Strong_TF_Freq_Inhits	0.0102	0.02788	rs4680445
HOXA10	1	NA	1	Strong_TF_Freq_Inhits	1e-04	0.000314520547945205	rs17286683
HOXA2	1	NA	0.9932	Strong_TF_Freq_Inhits	0.0136000000000001	0.0332895522388061	rs6977733
HOXD9	1	NA	1	Strong_TF_Freq_Inhits	1e-04	0.000314520547945205	rs17286683
ITGB2	1	NA	0.9932	Strong_TF_Freq_Inhits	0.0136000000000001	0.0332895522388061	rs1540319
LMO2	1	NA	0.9941	Strong_TF_Freq_Inhits	0.0118	0.0308574031890661	rs314267
MEIS1	2	NA	0.9999	Strong_TF_Freq_Inhits	0.000199999999999978	0.000618867924528234	rs2888389,rs73158329
MYB	1	NA	0.9939	Strong_TF_Freq_Inhits	0.0122	0.0313324384787472	rs11075924
MYF	1	NA	1	Strong_TF_Freq_Inhits	1e-04	0.000314520547945205	rs11772627
NFE2L1::MAFG	1	NA	1	Strong_TF_Freq_Inhits	1e-04	0.000314520547945205	rs2888389
NFE2L2	2	NA	0.9989	Strong_TF_Freq_Inhits	0.00219999999999998	0.00642646310432564	rs11209722,rs2888389
NFIC	2	NA	1	Strong_TF_Freq_Inhits	1e-04	0.000314520547945205	rs17630785,rs7513962
NFY-UA2	1	NA	0.9933	Strong_TF_Freq_Inhits	0.0134000000000001	0.0332895522388061	rs9669137
NKX2-5	1	NA	0.9941	Strong_TF_Freq_Inhits	0.0118	0.0308574031890661	rs10823133
NKX2-8	1	NA	1	Strong_TF_Freq_Inhits	1e-04	0.000314520547945205	rs10823133
NR2F1	3	NA	0.9986	Strong_TF_Freq_Inhits	0.00279999999999991	0.00803599999999975	rs13330178,rs250427,rs34416841
NR3C1	4	NA	0.9986	Strong_TF_Freq_Inhits	0.00279999999999991	0.00803599999999975	rs10463297,rs1656379,rs2141575,rs73157727
NR3C2	1	NA	1	Strong_TF_Freq_Inhits	1e-04	0.000314520547945205	rs1656379
PAX3	1	NA	0.9955	Strong_TF_Freq_Inhits	0.0089999999999999	0.0250776699029123	rs10135727
PBX	1	NA	1	Strong_TF_Freq_Inhits	1e-04	0.000314520547945205	rs6977733
PBX2	1	NA	1	Strong_TF_Freq_Inhits	1e-04	0.000314520547945205	rs73158329
PBX3	2	NA	0.9922	Strong_TF_Freq_Inhits	0.0156000000000001	0.0373878914405012	rs73158329,rs9669137
PDX1	2	NA	1	Strong_TF_Freq_Inhits	1e-04	0.000314520547945205	rs6977733,rs9399896
PGR	2	NA	1	Strong_TF_Freq_Inhits	1e-04	0.000314520547945205	rs1656379,rs2141575
POU2F2	1	NA	0.994	Strong_TF_Freq_Inhits	0.012	0.0313090909090909	rs7525653
POU2F3	1	NA	1	Strong_TF_Freq_Inhits	1e-04	0.000314520547945205	rs7525653
POU3F3	1	NA	1	Strong_TF_Freq_Inhits	1e-04	0.000314520547945205	rs7525653
POU3F4	1	NA	1	Strong_TF_Freq_Inhits	1e-04	0.000314520547945205	rs7525653
POU5F1B	1	NA	1	Strong_TF_Freq_Inhits	1e-04	0.000314520547945205	rs7525653
PRDM1	3	NA	0.9991	Strong_TF_Freq_Inhits	0.00180000000000002	0.00531208226221087	rs11209722,rs4801117,rs56360035
PTEN	1	NA	1	Strong_TF_Freq_Inhits	1e-04	0.000314520547945205	rs1187224
Pax7(Paired,Homeobox),longest/Myoblast-Pax7-ChIP-Seq(GSE25064)/Homer	1	NA	0.9951	Strong_TF_Freq_Inhits	0.00980000000000003	0.0270442307692309	rs33981648
RXRA	4	NA	0.993	Strong_TF_Freq_Inhits	0.014	0.0341231422505308	rs13330178,rs34416841,rs4801117,rs489591
SMAD	1	NA	1	Strong_TF_Freq_Inhits	1e-04	0.000314520547945205	rs62444919
SMAD1	1	NA	1	Strong_TF_Freq_Inhits	1e-04	0.000314520547945205	rs62444919
SMAD4	1	NA	0.9946	Strong_TF_Freq_Inhits	0.0107999999999999	0.0291727058823527	rs62444919
SP1	5	NA	0.9949	Strong_TF_Freq_Inhits	0.0102	0.02788	rs12574292,rs2071164,rs301807,rs62397566,rs7653558
SP2	2	NA	0.9934	Strong_TF_Freq_Inhits	0.0132000000000001	0.0331588621444204	rs62444919,rs9669137
SP3	4	NA	0.9997	Strong_TF_Freq_Inhits	0.000599999999999934	0.00181263157894717	rs12574292,rs2071164,rs2195271,rs301807
SREBF	3	NA	1	Strong_TF_Freq_Inhits	1e-04	0.000314520547945205	rs13330178,rs75251748,rs79269275
SREBF1	5	NA	0.9998	Strong_TF_Freq_Inhits	0.000399999999999956	0.00121803713527851	rs12574292,rs13330178,rs4899134,rs61985668,rs79269275
SREBF2	3	NA	0.9999	Strong_TF_Freq_Inhits	0.000199999999999978	0.000618867924528234	rs13330178,rs4899134,rs79269275
STAT4	1	NA	1	Strong_TF_Freq_Inhits	1e-04	0.000314520547945205	rs6500767
STAT5A	1	NA	0.9937	Strong_TF_Freq_Inhits	0.0125999999999999	0.0319311258278144	rs6500767
STAT5B	1	NA	0.9937	Strong_TF_Freq_Inhits	0.0125999999999999	0.0319311258278144	rs6500767
STAT6	1	NA	0.9932	Strong_TF_Freq_Inhits	0.0136000000000001	0.0332895522388061	rs6500767
STAT6(Stat)/Macrophage-Stat6-ChIP-Seq(GSE38377)/Homer	1	NA	0.9932	Strong_TF_Freq_Inhits	0.0136000000000001	0.0332895522388061	rs6500767
Stat3+il21(Stat)/CD4-Stat3-ChIP-Seq(GSE19198)/Homer	1	NA	1	Strong_TF_Freq_Inhits	1e-04	0.000314520547945205	rs10463297
TBX20	3	NA	0.9981	Strong_TF_Freq_Inhits	0.00380000000000003	0.0108248138957817	rs2888389,rs489591,rs9284880
TCF3	6	NA	0.9999	Strong_TF_Freq_Inhits	0.000199999999999978	0.000618867924528234	rs10823133,rs11772627,rs314267,rs4899134,rs6464284,rs6769609
TFAP2B	2	NA	1	Strong_TF_Freq_Inhits	1e-04	0.000314520547945205	rs113278975,rs7653558
TFAP2E	1	NA	0.9941	Strong_TF_Freq_Inhits	0.0118	0.0308574031890661	rs7653558
TFEC	1	NA	0.9939	Strong_TF_Freq_Inhits	0.0122	0.0313324384787472	rs4899134
TP73	1	NA	1	Strong_TF_Freq_Inhits	1e-04	0.000314520547945205	rs3758789
Tbox:Smad(T-box,MAD)/ESCd5-Smad2_3-ChIP-Seq(GSE29422)/Homer	1	NA	0.9944	Strong_TF_Freq_Inhits	0.0112000000000001	0.0296942263279448	rs62444919
UA7	1	NA	1	Strong_TF_Freq_Inhits	1e-04	0.000314520547945205	rs2195271
UA8	1	NA	1	Strong_TF_Freq_Inhits	1e-04	0.000314520547945205	rs369065
USF	1	NA	0.9944	Strong_TF_Freq_Inhits	0.0112000000000001	0.0296942263279448	rs1187224
VSX1	1	NA	1	Strong_TF_Freq_Inhits	1e-04	0.000314520547945205	rs4680445
YY2	1	NA	1	Strong_TF_Freq_Inhits	1e-04	0.000314520547945205	rs61778711
ZBTB16	1	NA	0.9939	Strong_TF_Freq_Inhits	0.0122	0.0313324384787472	rs7608024
ZEB1	6	NA	1	Strong_TF_Freq_Inhits	1e-04	0.000314520547945205	rs10823133,rs314267,rs4899134,rs61985668,rs6464284,rs6769609
ZIC1	1	NA	0.9939	Strong_TF_Freq_Inhits	0.0122	0.0313324384787472	rs489591
ZIC3	1	NA	1	Strong_TF_Freq_Inhits	1e-04	0.000314520547945205	rs489591
ZIC4	1	NA	1	Strong_TF_Freq_Inhits	1e-04	0.000314520547945205	rs7653558
v-Maf	1	NA	0.9933	Strong_TF_Freq_Inhits	0.0134000000000001	0.0332895522388061	rs33981648
