TF	nhits.match	nhits.conc	emp.pctile	analysis.type	pval	FDR
AFP	1	NA	1	Anystrength_TF_Freq_InHits	1e-04	0.000164835164835165
AHR::ARNT::HIF1A	1	NA	1	Anystrength_TF_Freq_InHits	1e-04	0.000164835164835165
AIRE	1	NA	1	Anystrength_TF_Freq_InHits	1e-04	0.000164835164835165
ALX1	1	NA	1	Anystrength_TF_Freq_InHits	1e-04	0.000164835164835165
ALX3	1	NA	1	Anystrength_TF_Freq_InHits	1e-04	0.000164835164835165
ALX4	1	NA	1	Anystrength_TF_Freq_InHits	1e-04	0.000164835164835165
AP1	1	NA	1	Anystrength_TF_Freq_InHits	1e-04	0.000164835164835165
ARHGEF12	1	NA	1	Anystrength_TF_Freq_InHits	1e-04	0.000164835164835165
ARID3A	1	NA	1	Anystrength_TF_Freq_InHits	1e-04	0.000164835164835165
ARNT	2	NA	1	Anystrength_TF_Freq_InHits	1e-04	0.000164835164835165
ARNTL	1	NA	1	Anystrength_TF_Freq_InHits	1e-04	0.000164835164835165
ARX	1	NA	1	Anystrength_TF_Freq_InHits	1e-04	0.000164835164835165
ASCL2	1	NA	1	Anystrength_TF_Freq_InHits	1e-04	0.000164835164835165
ATF3	2	NA	1	Anystrength_TF_Freq_InHits	1e-04	0.000164835164835165
ATF5	2	NA	1	Anystrength_TF_Freq_InHits	1e-04	0.000164835164835165
BACH1	3	NA	1	Anystrength_TF_Freq_InHits	1e-04	0.000164835164835165
BACH2	1	NA	1	Anystrength_TF_Freq_InHits	1e-04	0.000164835164835165
BARHL2	1	NA	1	Anystrength_TF_Freq_InHits	1e-04	0.000164835164835165
BATF3	1	NA	1	Anystrength_TF_Freq_InHits	1e-04	0.000164835164835165
BCL3	1	NA	1	Anystrength_TF_Freq_InHits	1e-04	0.000164835164835165
BCL6B	1	NA	1	Anystrength_TF_Freq_InHits	1e-04	0.000164835164835165
BHLHE40	2	NA	1	Anystrength_TF_Freq_InHits	1e-04	0.000164835164835165
BHLHE41	4	NA	1	Anystrength_TF_Freq_InHits	1e-04	0.000164835164835165
CACBP	2	NA	1	Anystrength_TF_Freq_InHits	1e-04	0.000164835164835165
CDC5L	1	NA	1	Anystrength_TF_Freq_InHits	1e-04	0.000164835164835165
CDX2	1	NA	1	Anystrength_TF_Freq_InHits	1e-04	0.000164835164835165
CEBP	2	NA	1	Anystrength_TF_Freq_InHits	1e-04	0.000164835164835165
CEBP:CEBP(bZIP)/MEF-Chop-ChIP-Seq(GSE35681)/Homer	1	NA	1	Anystrength_TF_Freq_InHits	1e-04	0.000164835164835165
CEBPB	1	NA	1	Anystrength_TF_Freq_InHits	1e-04	0.000164835164835165
CEBPD	1	NA	1	Anystrength_TF_Freq_InHits	1e-04	0.000164835164835165
CEBPG	1	NA	1	Anystrength_TF_Freq_InHits	1e-04	0.000164835164835165
CENPB	1	NA	1	Anystrength_TF_Freq_InHits	1e-04	0.000164835164835165
CHR(?)/Hela-CellCycle-Expression/Homer	1	NA	1	Anystrength_TF_Freq_InHits	1e-04	0.000164835164835165
CLOCK	1	NA	1	Anystrength_TF_Freq_InHits	1e-04	0.000164835164835165
CLOCK::ARNTL	1	NA	1	Anystrength_TF_Freq_InHits	1e-04	0.000164835164835165
COMP1	1	NA	1	Anystrength_TF_Freq_InHits	1e-04	0.000164835164835165
CREB-ext	2	NA	1	Anystrength_TF_Freq_InHits	1e-04	0.000164835164835165
CREB1	4	NA	1	Anystrength_TF_Freq_InHits	1e-04	0.000164835164835165
CREB3L1	1	NA	1	Anystrength_TF_Freq_InHits	1e-04	0.000164835164835165
CREB3L2	3	NA	1	Anystrength_TF_Freq_InHits	1e-04	0.000164835164835165
CREB5	1	NA	1	Anystrength_TF_Freq_InHits	1e-04	0.000164835164835165
CREM	2	NA	1	Anystrength_TF_Freq_InHits	1e-04	0.000164835164835165
CTCF	2	NA	0.0035	Anystrength_TF_Freq_InHits	0.007	0.0114628820960699
CTCF-SatelliteElement(Zf?)/CD4+-CTCF-ChIP-Seq(Barski et al.)/Homer	1	NA	1	Anystrength_TF_Freq_InHits	1e-04	0.000164835164835165
DBP	1	NA	1	Anystrength_TF_Freq_InHits	1e-04	0.000164835164835165
DDIT3	1	NA	1	Anystrength_TF_Freq_InHits	1e-04	0.000164835164835165
DDIT3::CEBPA	1	NA	1	Anystrength_TF_Freq_InHits	1e-04	0.000164835164835165
DRGX	1	NA	1	Anystrength_TF_Freq_InHits	1e-04	0.000164835164835165
E-box(bHLH)/Promoter/Homer	1	NA	1	Anystrength_TF_Freq_InHits	1e-04	0.000164835164835165
E2F1	5	NA	1	Anystrength_TF_Freq_InHits	1e-04	0.000164835164835165
E2F4	2	NA	1	Anystrength_TF_Freq_InHits	1e-04	0.000164835164835165
E2F5	1	NA	1	Anystrength_TF_Freq_InHits	1e-04	0.000164835164835165
E2F6	2	NA	1	Anystrength_TF_Freq_InHits	1e-04	0.000164835164835165
E2F7	2	NA	1	Anystrength_TF_Freq_InHits	1e-04	0.000164835164835165
EBF1	1	NA	1	Anystrength_TF_Freq_InHits	1e-04	0.000164835164835165
EGR1	7	NA	1	Anystrength_TF_Freq_InHits	1e-04	0.000164835164835165
EGR3	3	NA	1	Anystrength_TF_Freq_InHits	1e-04	0.000164835164835165
EGR4	5	NA	1	Anystrength_TF_Freq_InHits	1e-04	0.000164835164835165
EHF	1	NA	0.0075	Anystrength_TF_Freq_InHits	0.015	0.0241935483870968
ELF1	3	NA	1	Anystrength_TF_Freq_InHits	1e-04	0.000164835164835165
ELF3	3	NA	1	Anystrength_TF_Freq_InHits	1e-04	0.000164835164835165
EOMES	2	NA	1	Anystrength_TF_Freq_InHits	1e-04	0.000164835164835165
EP300	7	NA	1	Anystrength_TF_Freq_InHits	1e-04	0.000164835164835165
ESRRA	2	NA	1	Anystrength_TF_Freq_InHits	1e-04	0.000164835164835165
ESRRG	3	NA	1	Anystrength_TF_Freq_InHits	1e-04	0.000164835164835165
ETS	2	NA	1	Anystrength_TF_Freq_InHits	1e-04	0.000164835164835165
ETS1	5	NA	1	Anystrength_TF_Freq_InHits	1e-04	0.000164835164835165
ETS2	2	NA	1	Anystrength_TF_Freq_InHits	1e-04	0.000164835164835165
ETS:E-box(ETS,bHLH)/HPC7-Scl-ChIP-Seq(GSE22178)/Homer	1	NA	1	Anystrength_TF_Freq_InHits	1e-04	0.000164835164835165
ETV6	1	NA	1	Anystrength_TF_Freq_InHits	1e-04	0.000164835164835165
ETV7	2	NA	1	Anystrength_TF_Freq_InHits	1e-04	0.000164835164835165
EWS:ERG-fusion(ETS)/CADO_ES1-EWS:ERG-ChIP-Seq(SRA014231)/Homer	2	NA	1	Anystrength_TF_Freq_InHits	1e-04	0.000164835164835165
EWS:FLI1-fusion(ETS)/SK_N_MC-EWS:FLI1-ChIP-Seq(SRA014231)/Homer	2	NA	1	Anystrength_TF_Freq_InHits	1e-04	0.000164835164835165
Ets1-distal(ETS)/CD4+-PolII-ChIP-Seq(Barski et al.)/Homer	2	NA	1	Anystrength_TF_Freq_InHits	1e-04	0.000164835164835165
FEV	2	NA	1	Anystrength_TF_Freq_InHits	1e-04	0.000164835164835165
FIGLA	3	NA	1	Anystrength_TF_Freq_InHits	1e-04	0.000164835164835165
FOS	2	NA	1	Anystrength_TF_Freq_InHits	1e-04	0.000164835164835165
FOSB	1	NA	1	Anystrength_TF_Freq_InHits	1e-04	0.000164835164835165
FOSL2	1	NA	1	Anystrength_TF_Freq_InHits	1e-04	0.000164835164835165
FOXA1	2	NA	1	Anystrength_TF_Freq_InHits	1e-04	0.000164835164835165
FOXB1	3	NA	1	Anystrength_TF_Freq_InHits	1e-04	0.000164835164835165
FOXD1	1	NA	1	Anystrength_TF_Freq_InHits	1e-04	0.000164835164835165
FOXD3	3	NA	1	Anystrength_TF_Freq_InHits	1e-04	0.000164835164835165
FOXF1	3	NA	1	Anystrength_TF_Freq_InHits	1e-04	0.000164835164835165
FOXG1	2	NA	1	Anystrength_TF_Freq_InHits	1e-04	0.000164835164835165
FOXI1	2	NA	1	Anystrength_TF_Freq_InHits	1e-04	0.000164835164835165
FOXJ1	1	NA	1	Anystrength_TF_Freq_InHits	1e-04	0.000164835164835165
FOXL1	1	NA	1	Anystrength_TF_Freq_InHits	1e-04	0.000164835164835165
FOXN1	1	NA	1	Anystrength_TF_Freq_InHits	1e-04	0.000164835164835165
FOXO1	1	NA	0.007	Anystrength_TF_Freq_InHits	0.014	0.0227272727272727
FOXP1	4	NA	1	Anystrength_TF_Freq_InHits	1e-04	0.000164835164835165
FOXP2	1	NA	1	Anystrength_TF_Freq_InHits	1e-04	0.000164835164835165
FUBP1	3	NA	1	Anystrength_TF_Freq_InHits	1e-04	0.000164835164835165
GATA2	2	NA	1	Anystrength_TF_Freq_InHits	1e-04	0.000164835164835165
GATA3(Zf),DR4/iTreg-Gata3-ChIP-Seq(GSE20898)/Homer	3	NA	1	Anystrength_TF_Freq_InHits	1e-04	0.000164835164835165
GATA3(Zf),DR8/iTreg-Gata3-ChIP-Seq(GSE20898)/Homer	1	NA	1	Anystrength_TF_Freq_InHits	1e-04	0.000164835164835165
GATA5	1	NA	1	Anystrength_TF_Freq_InHits	1e-04	0.000164835164835165
GCM	1	NA	1	Anystrength_TF_Freq_InHits	1e-04	0.000164835164835165
GCM1	1	NA	1	Anystrength_TF_Freq_InHits	1e-04	0.000164835164835165
GFI1	2	NA	1	Anystrength_TF_Freq_InHits	1e-04	0.000164835164835165
GFI1B	2	NA	1	Anystrength_TF_Freq_InHits	1e-04	0.000164835164835165
GFY(?)/Promoter/Homer	2	NA	1	Anystrength_TF_Freq_InHits	1e-04	0.000164835164835165
GFY-Staf(?,Zf)/Promoter/Homer	2	NA	1	Anystrength_TF_Freq_InHits	1e-04	0.000164835164835165
GLI2	2	NA	1	Anystrength_TF_Freq_InHits	1e-04	0.000164835164835165
Gata1(Zf)/K562-GATA1-ChIP-Seq(GSE18829)/Homer	1	NA	1	Anystrength_TF_Freq_InHits	1e-04	0.000164835164835165
HDAC2	3	NA	1	Anystrength_TF_Freq_InHits	1e-04	0.000164835164835165
HDX	1	NA	1	Anystrength_TF_Freq_InHits	1e-04	0.000164835164835165
HES1	1	NA	1	Anystrength_TF_Freq_InHits	1e-04	0.000164835164835165
HESX1	1	NA	1	Anystrength_TF_Freq_InHits	1e-04	0.000164835164835165
HEY1	2	NA	1	Anystrength_TF_Freq_InHits	1e-04	0.000164835164835165
HF1H3B	3	NA	1	Anystrength_TF_Freq_InHits	1e-04	0.000164835164835165
HINFP	1	NA	1	Anystrength_TF_Freq_InHits	1e-04	0.000164835164835165
HMGA1	1	NA	1	Anystrength_TF_Freq_InHits	1e-04	0.000164835164835165
HNF1	1	NA	1	Anystrength_TF_Freq_InHits	1e-04	0.000164835164835165
HNF4G	1	NA	9e-04	Anystrength_TF_Freq_InHits	0.0018	0.00295404814004376
HOMEZ	1	NA	1	Anystrength_TF_Freq_InHits	1e-04	0.000164835164835165
HOXA10	1	NA	1	Anystrength_TF_Freq_InHits	1e-04	0.000164835164835165
HOXC6	1	NA	1	Anystrength_TF_Freq_InHits	1e-04	0.000164835164835165
HOXD13	2	NA	1	Anystrength_TF_Freq_InHits	1e-04	0.000164835164835165
ID4	1	NA	1	Anystrength_TF_Freq_InHits	1e-04	0.000164835164835165
IKZF1	1	NA	1	Anystrength_TF_Freq_InHits	1e-04	0.000164835164835165
IKZF3	1	NA	1	Anystrength_TF_Freq_InHits	1e-04	0.000164835164835165
IRF	2	NA	1	Anystrength_TF_Freq_InHits	1e-04	0.000164835164835165
IRF3	1	NA	0.0073	Anystrength_TF_Freq_InHits	0.0146	0.0235737351991389
IRF4	1	NA	7e-04	Anystrength_TF_Freq_InHits	0.0014	0.00230263157894737
IRF7	2	NA	1	Anystrength_TF_Freq_InHits	1e-04	0.000164835164835165
IRF8	2	NA	0.0032	Anystrength_TF_Freq_InHits	0.0064	0.0104918032786885
IRF9	3	NA	0.0067	Anystrength_TF_Freq_InHits	0.0134	0.0218478260869565
IRX3	1	NA	1	Anystrength_TF_Freq_InHits	1e-04	0.000164835164835165
ISX	1	NA	1	Anystrength_TF_Freq_InHits	1e-04	0.000164835164835165
ITGB2	1	NA	1	Anystrength_TF_Freq_InHits	1e-04	0.000164835164835165
JUN	1	NA	1	Anystrength_TF_Freq_InHits	1e-04	0.000164835164835165
KLF14	1	NA	1	Anystrength_TF_Freq_InHits	1e-04	0.000164835164835165
KLF3	2	NA	1	Anystrength_TF_Freq_InHits	1e-04	0.000164835164835165
KLF4	3	NA	1	Anystrength_TF_Freq_InHits	1e-04	0.000164835164835165
KLF7	1	NA	1	Anystrength_TF_Freq_InHits	1e-04	0.000164835164835165
LEF1	1	NA	1	Anystrength_TF_Freq_InHits	1e-04	0.000164835164835165
LMO2	1	NA	1	Anystrength_TF_Freq_InHits	1e-04	0.000164835164835165
MAF	1	NA	0.0067	Anystrength_TF_Freq_InHits	0.0134	0.0218478260869565
MAFB	1	NA	1	Anystrength_TF_Freq_InHits	1e-04	0.000164835164835165
MAFK	4	NA	1	Anystrength_TF_Freq_InHits	1e-04	0.000164835164835165
MAX	2	NA	1	Anystrength_TF_Freq_InHits	1e-04	0.000164835164835165
MAZ	3	NA	0.0068	Anystrength_TF_Freq_InHits	0.0136	0.0221498371335505
MEF2	3	NA	1	Anystrength_TF_Freq_InHits	1e-04	0.000164835164835165
MEF2A	4	NA	1	Anystrength_TF_Freq_InHits	1e-04	0.000164835164835165
MEF2B	1	NA	1	Anystrength_TF_Freq_InHits	1e-04	0.000164835164835165
MEF2C	4	NA	1	Anystrength_TF_Freq_InHits	1e-04	0.000164835164835165
MEF2D	2	NA	1	Anystrength_TF_Freq_InHits	1e-04	0.000164835164835165
MEOX2	1	NA	1	Anystrength_TF_Freq_InHits	1e-04	0.000164835164835165
MESP1	1	NA	1	Anystrength_TF_Freq_InHits	1e-04	0.000164835164835165
MLX	2	NA	1	Anystrength_TF_Freq_InHits	1e-04	0.000164835164835165
MLXIPL	2	NA	1	Anystrength_TF_Freq_InHits	1e-04	0.000164835164835165
MSX2	1	NA	1	Anystrength_TF_Freq_InHits	1e-04	0.000164835164835165
MXI1	1	NA	1	Anystrength_TF_Freq_InHits	1e-04	0.000164835164835165
MYC	1	NA	0.0063	Anystrength_TF_Freq_InHits	0.0126	0.0205882352941176
MYC::MAX	2	NA	1	Anystrength_TF_Freq_InHits	1e-04	0.000164835164835165
MYCN	1	NA	1	Anystrength_TF_Freq_InHits	1e-04	0.000164835164835165
MYEF2	5	NA	1	Anystrength_TF_Freq_InHits	1e-04	0.000164835164835165
MYF	1	NA	1	Anystrength_TF_Freq_InHits	1e-04	0.000164835164835165
MYF5	1	NA	1	Anystrength_TF_Freq_InHits	1e-04	0.000164835164835165
MYOD1	2	NA	1	Anystrength_TF_Freq_InHits	1e-04	0.000164835164835165
MZF1	3	NA	1	Anystrength_TF_Freq_InHits	1e-04	0.000164835164835165
NANOG	4	NA	1	Anystrength_TF_Freq_InHits	1e-04	0.000164835164835165
NFE2	4	NA	1	Anystrength_TF_Freq_InHits	1e-04	0.000164835164835165
NFE2L1::MAFG	2	NA	1	Anystrength_TF_Freq_InHits	1e-04	0.000164835164835165
NFE2L2	3	NA	1	Anystrength_TF_Freq_InHits	1e-04	0.000164835164835165
NFIA	2	NA	1	Anystrength_TF_Freq_InHits	1e-04	0.000164835164835165
NFIA+NFIB+NFIC+NFIX	1	NA	1	Anystrength_TF_Freq_InHits	1e-04	0.000164835164835165
NFIB	2	NA	1	Anystrength_TF_Freq_InHits	1e-04	0.000164835164835165
NFIC	4	NA	1	Anystrength_TF_Freq_InHits	1e-04	0.000164835164835165
NFIL3	1	NA	1	Anystrength_TF_Freq_InHits	1e-04	0.000164835164835165
NFIX	1	NA	1	Anystrength_TF_Freq_InHits	1e-04	0.000164835164835165
NFKB1	2	NA	1	Anystrength_TF_Freq_InHits	1e-04	0.000164835164835165
NFKB2	2	NA	1	Anystrength_TF_Freq_InHits	1e-04	0.000164835164835165
NFY	1	NA	1	Anystrength_TF_Freq_InHits	1e-04	0.000164835164835165
NFYA	1	NA	1	Anystrength_TF_Freq_InHits	1e-04	0.000164835164835165
NFYB	1	NA	1	Anystrength_TF_Freq_InHits	1e-04	0.000164835164835165
NHLH1	4	NA	1	Anystrength_TF_Freq_InHits	1e-04	0.000164835164835165
NKX2-2	3	NA	1	Anystrength_TF_Freq_InHits	1e-04	0.000164835164835165
NKX2-3	1	NA	1	Anystrength_TF_Freq_InHits	1e-04	0.000164835164835165
NKX2-5	2	NA	1	Anystrength_TF_Freq_InHits	1e-04	0.000164835164835165
NKX3-1	2	NA	1	Anystrength_TF_Freq_InHits	1e-04	0.000164835164835165
NKX3-2	1	NA	1	Anystrength_TF_Freq_InHits	1e-04	0.000164835164835165
NPAS2	1	NA	1	Anystrength_TF_Freq_InHits	1e-04	0.000164835164835165
NR0B1	1	NA	1	Anystrength_TF_Freq_InHits	1e-04	0.000164835164835165
NR1H2	1	NA	1	Anystrength_TF_Freq_InHits	1e-04	0.000164835164835165
NR1H4	1	NA	1	Anystrength_TF_Freq_InHits	1e-04	0.000164835164835165
NR1I2	2	NA	1	Anystrength_TF_Freq_InHits	1e-04	0.000164835164835165
NR2C2	3	NA	1	Anystrength_TF_Freq_InHits	1e-04	0.000164835164835165
NR2E1	2	NA	1	Anystrength_TF_Freq_InHits	1e-04	0.000164835164835165
NR2E1::NFIC	2	NA	1	Anystrength_TF_Freq_InHits	1e-04	0.000164835164835165
NR2E3	3	NA	1	Anystrength_TF_Freq_InHits	1e-04	0.000164835164835165
NR2F2	2	NA	1	Anystrength_TF_Freq_InHits	1e-04	0.000164835164835165
NR3C1	1	NA	0.0077	Anystrength_TF_Freq_InHits	0.0154	0.0247588424437299
NR5A2	1	NA	1	Anystrength_TF_Freq_InHits	1e-04	0.000164835164835165
NR6A1	1	NA	1	Anystrength_TF_Freq_InHits	1e-04	0.000164835164835165
OCT4-SOX2-TCF-NANOG(POU,Homeobox,HMG)/mES-Oct4-ChIP-Seq(GSE11431)/Homer	2	NA	1	Anystrength_TF_Freq_InHits	1e-04	0.000164835164835165
OLIG2	1	NA	1	Anystrength_TF_Freq_InHits	1e-04	0.000164835164835165
Oct4:Sox17(POU,Homeobox,HMG)/F9-Sox17-ChIP-Seq(GSE44553)/Homer	1	NA	1	Anystrength_TF_Freq_InHits	1e-04	0.000164835164835165
PAX4	4	NA	1	Anystrength_TF_Freq_InHits	1e-04	0.000164835164835165
PAX5	3	NA	1	Anystrength_TF_Freq_InHits	1e-04	0.000164835164835165
PAX5(Paired,Homeobox),condensed/GM12878-PAX5-ChIP-Seq(GSE32465)/Homer	1	NA	1	Anystrength_TF_Freq_InHits	1e-04	0.000164835164835165
PAX6	1	NA	1	Anystrength_TF_Freq_InHits	1e-04	0.000164835164835165
PAX8	1	NA	1	Anystrength_TF_Freq_InHits	1e-04	0.000164835164835165
PBX3	2	NA	1	Anystrength_TF_Freq_InHits	1e-04	0.000164835164835165
PKNOX1	1	NA	1	Anystrength_TF_Freq_InHits	1e-04	0.000164835164835165
PLAGL1	1	NA	1	Anystrength_TF_Freq_InHits	1e-04	0.000164835164835165
POU	1	NA	1	Anystrength_TF_Freq_InHits	1e-04	0.000164835164835165
POU1F1	3	NA	1	Anystrength_TF_Freq_InHits	1e-04	0.000164835164835165
POU2F1	4	NA	1	Anystrength_TF_Freq_InHits	1e-04	0.000164835164835165
POU2F2	4	NA	1	Anystrength_TF_Freq_InHits	1e-04	0.000164835164835165
POU2F3	2	NA	1	Anystrength_TF_Freq_InHits	1e-04	0.000164835164835165
POU3F1	3	NA	1	Anystrength_TF_Freq_InHits	1e-04	0.000164835164835165
POU3F2	3	NA	1	Anystrength_TF_Freq_InHits	1e-04	0.000164835164835165
POU3F3	1	NA	1	Anystrength_TF_Freq_InHits	1e-04	0.000164835164835165
POU3F4	1	NA	1	Anystrength_TF_Freq_InHits	1e-04	0.000164835164835165
POU4F2	1	NA	1	Anystrength_TF_Freq_InHits	1e-04	0.000164835164835165
POU5F1	3	NA	1	Anystrength_TF_Freq_InHits	1e-04	0.000164835164835165
POU5F1B	2	NA	1	Anystrength_TF_Freq_InHits	1e-04	0.000164835164835165
POU6F1	1	NA	1	Anystrength_TF_Freq_InHits	1e-04	0.000164835164835165
PPARA	3	NA	1	Anystrength_TF_Freq_InHits	1e-04	0.000164835164835165
PRDM14	1	NA	1	Anystrength_TF_Freq_InHits	1e-04	0.000164835164835165
PRDM9	2	NA	1	Anystrength_TF_Freq_InHits	1e-04	0.000164835164835165
PROP1	2	NA	1	Anystrength_TF_Freq_InHits	1e-04	0.000164835164835165
PU.1-IRF(ETS:IRF)/Bcell-PU.1-ChIP-Seq(GSE21512)/Homer	1	NA	1	Anystrength_TF_Freq_InHits	1e-04	0.000164835164835165
Pax7(Paired,Homeobox),longest/Myoblast-Pax7-ChIP-Seq(GSE25064)/Homer	1	NA	1	Anystrength_TF_Freq_InHits	1e-04	0.000164835164835165
RAD21	4	NA	1	Anystrength_TF_Freq_InHits	1e-04	0.000164835164835165
RARG	8	NA	1	Anystrength_TF_Freq_InHits	1e-04	0.000164835164835165
RBPJ:Ebox(?,bHLH)/Panc1-Rbpj1-ChIP-Seq(GSE47459)/Homer	1	NA	1	Anystrength_TF_Freq_InHits	1e-04	0.000164835164835165
REL	1	NA	1	Anystrength_TF_Freq_InHits	1e-04	0.000164835164835165
RELA	1	NA	1	Anystrength_TF_Freq_InHits	1e-04	0.000164835164835165
RELB	1	NA	1	Anystrength_TF_Freq_InHits	1e-04	0.000164835164835165
REST	2	NA	4e-04	Anystrength_TF_Freq_InHits	8e-04	0.0013172338090011
RFX2	3	NA	1	Anystrength_TF_Freq_InHits	1e-04	0.000164835164835165
RFX3	3	NA	1	Anystrength_TF_Freq_InHits	1e-04	0.000164835164835165
RFX4	1	NA	1	Anystrength_TF_Freq_InHits	1e-04	0.000164835164835165
RFX5	1	NA	1	Anystrength_TF_Freq_InHits	1e-04	0.000164835164835165
RHOXF1	1	NA	1	Anystrength_TF_Freq_InHits	1e-04	0.000164835164835165
RORC	1	NA	1	Anystrength_TF_Freq_InHits	1e-04	0.000164835164835165
RREB1	1	NA	0.0079	Anystrength_TF_Freq_InHits	0.0158	0.0253747323340471
RUNX2	3	NA	1	Anystrength_TF_Freq_InHits	1e-04	0.000164835164835165
RUNX3	4	NA	1	Anystrength_TF_Freq_InHits	1e-04	0.000164835164835165
SEF1	1	NA	1	Anystrength_TF_Freq_InHits	1e-04	0.000164835164835165
SIRT6	1	NA	1	Anystrength_TF_Freq_InHits	1e-04	0.000164835164835165
SIX2	1	NA	1	Anystrength_TF_Freq_InHits	1e-04	0.000164835164835165
SIX5	3	NA	1	Anystrength_TF_Freq_InHits	1e-04	0.000164835164835165
SMAD	2	NA	1	Anystrength_TF_Freq_InHits	1e-04	0.000164835164835165
SMAD1	2	NA	1	Anystrength_TF_Freq_InHits	1e-04	0.000164835164835165
SMAD3	3	NA	1	Anystrength_TF_Freq_InHits	1e-04	0.000164835164835165
SMAD4	1	NA	1	Anystrength_TF_Freq_InHits	1e-04	0.000164835164835165
SNAI1	1	NA	1	Anystrength_TF_Freq_InHits	1e-04	0.000164835164835165
SOX11	2	NA	1	Anystrength_TF_Freq_InHits	1e-04	0.000164835164835165
SOX14	1	NA	1	Anystrength_TF_Freq_InHits	1e-04	0.000164835164835165
SOX15	2	NA	1	Anystrength_TF_Freq_InHits	1e-04	0.000164835164835165
SOX17	3	NA	1	Anystrength_TF_Freq_InHits	1e-04	0.000164835164835165
SOX18	2	NA	1	Anystrength_TF_Freq_InHits	1e-04	0.000164835164835165
SOX2	3	NA	1	Anystrength_TF_Freq_InHits	1e-04	0.000164835164835165
SOX2-OCT4	1	NA	1	Anystrength_TF_Freq_InHits	1e-04	0.000164835164835165
SOX21	2	NA	1	Anystrength_TF_Freq_InHits	1e-04	0.000164835164835165
SOX3	1	NA	1	Anystrength_TF_Freq_InHits	1e-04	0.000164835164835165
SOX7	1	NA	1	Anystrength_TF_Freq_InHits	1e-04	0.000164835164835165
SP2	4	NA	1	Anystrength_TF_Freq_InHits	1e-04	0.000164835164835165
SP4	1	NA	0.0091	Anystrength_TF_Freq_InHits	0.0182	0.0291978609625668
SP8	2	NA	1	Anystrength_TF_Freq_InHits	1e-04	0.000164835164835165
SPDEF	3	NA	1	Anystrength_TF_Freq_InHits	1e-04	0.000164835164835165
SREBF	1	NA	1	Anystrength_TF_Freq_InHits	1e-04	0.000164835164835165
SREBF1	8	NA	1	Anystrength_TF_Freq_InHits	1e-04	0.000164835164835165
SREBF2	3	NA	1	Anystrength_TF_Freq_InHits	1e-04	0.000164835164835165
SRF	3	NA	1	Anystrength_TF_Freq_InHits	1e-04	0.000164835164835165
SRY	3	NA	1	Anystrength_TF_Freq_InHits	1e-04	0.000164835164835165
STAT	1	NA	1	Anystrength_TF_Freq_InHits	1e-04	0.000164835164835165
STAT3	7	NA	1	Anystrength_TF_Freq_InHits	1e-04	0.000164835164835165
STAT4	2	NA	1	Anystrength_TF_Freq_InHits	1e-04	0.000164835164835165
STAT5A	1	NA	1	Anystrength_TF_Freq_InHits	1e-04	0.000164835164835165
STAT5B	1	NA	1	Anystrength_TF_Freq_InHits	1e-04	0.000164835164835165
Stat3+il21(Stat)/CD4-Stat3-ChIP-Seq(GSE19198)/Homer	1	NA	1	Anystrength_TF_Freq_InHits	1e-04	0.000164835164835165
TAF1	5	NA	1	Anystrength_TF_Freq_InHits	1e-04	0.000164835164835165
TAL1	1	NA	9e-04	Anystrength_TF_Freq_InHits	0.0018	0.00295404814004376
TBP	2	NA	1	Anystrength_TF_Freq_InHits	1e-04	0.000164835164835165
TBX1	5	NA	1	Anystrength_TF_Freq_InHits	1e-04	0.000164835164835165
TBX2	2	NA	1	Anystrength_TF_Freq_InHits	1e-04	0.000164835164835165
TCF12	3	NA	1	Anystrength_TF_Freq_InHits	1e-04	0.000164835164835165
TCF3	5	NA	1	Anystrength_TF_Freq_InHits	1e-04	0.000164835164835165
TCF4	1	NA	1	Anystrength_TF_Freq_InHits	1e-04	0.000164835164835165
TCF7	1	NA	1	Anystrength_TF_Freq_InHits	1e-04	0.000164835164835165
TCF7L1	1	NA	1	Anystrength_TF_Freq_InHits	1e-04	0.000164835164835165
TCF7L2	1	NA	1	Anystrength_TF_Freq_InHits	1e-04	0.000164835164835165
TCFL2(HMG)/K562-TCF7L2-ChIP-Seq(GSE29196)/Homer	1	NA	1	Anystrength_TF_Freq_InHits	1e-04	0.000164835164835165
TEAD(TEA)/Fibroblast-PU.1-ChIP-Seq(Unpublished)/Homer	2	NA	1	Anystrength_TF_Freq_InHits	1e-04	0.000164835164835165
TEAD1	2	NA	1	Anystrength_TF_Freq_InHits	1e-04	0.000164835164835165
TEAD2	1	NA	1	Anystrength_TF_Freq_InHits	1e-04	0.000164835164835165
TEAD3	2	NA	1	Anystrength_TF_Freq_InHits	1e-04	0.000164835164835165
TEAD4	1	NA	1	Anystrength_TF_Freq_InHits	1e-04	0.000164835164835165
TEF	2	NA	1	Anystrength_TF_Freq_InHits	1e-04	0.000164835164835165
TFAP4	2	NA	1	Anystrength_TF_Freq_InHits	1e-04	0.000164835164835165
TFCP2	1	NA	1	Anystrength_TF_Freq_InHits	1e-04	0.000164835164835165
TFCP2L1	1	NA	1	Anystrength_TF_Freq_InHits	1e-04	0.000164835164835165
TFE3	2	NA	1	Anystrength_TF_Freq_InHits	1e-04	0.000164835164835165
TFEB	2	NA	1	Anystrength_TF_Freq_InHits	1e-04	0.000164835164835165
TFEC	1	NA	1	Anystrength_TF_Freq_InHits	1e-04	0.000164835164835165
THAP1	1	NA	1	Anystrength_TF_Freq_InHits	1e-04	0.000164835164835165
THRA	4	NA	1	Anystrength_TF_Freq_InHits	1e-04	0.000164835164835165
THRB	5	NA	1	Anystrength_TF_Freq_InHits	1e-04	0.000164835164835165
TWIST1	2	NA	1	Anystrength_TF_Freq_InHits	1e-04	0.000164835164835165
Tbox:Smad(T-box,MAD)/ESCd5-Smad2_3-ChIP-Seq(GSE29422)/Homer	1	NA	1	Anystrength_TF_Freq_InHits	1e-04	0.000164835164835165
UA1	1	NA	1	Anystrength_TF_Freq_InHits	1e-04	0.000164835164835165
UA12	1	NA	1	Anystrength_TF_Freq_InHits	1e-04	0.000164835164835165
UA3	1	NA	1	Anystrength_TF_Freq_InHits	1e-04	0.000164835164835165
UA5	2	NA	1	Anystrength_TF_Freq_InHits	1e-04	0.000164835164835165
USF	2	NA	1	Anystrength_TF_Freq_InHits	1e-04	0.000164835164835165
USF1	2	NA	1	Anystrength_TF_Freq_InHits	1e-04	0.000164835164835165
USF2	2	NA	1	Anystrength_TF_Freq_InHits	1e-04	0.000164835164835165
WT1	4	NA	1	Anystrength_TF_Freq_InHits	1e-04	0.000164835164835165
YY1	5	NA	1	Anystrength_TF_Freq_InHits	1e-04	0.000164835164835165
YY2	1	NA	1	Anystrength_TF_Freq_InHits	1e-04	0.000164835164835165
ZBTB14	1	NA	1	Anystrength_TF_Freq_InHits	1e-04	0.000164835164835165
ZBTB18	1	NA	1	Anystrength_TF_Freq_InHits	1e-04	0.000164835164835165
ZBTB7A	4	NA	1	Anystrength_TF_Freq_InHits	1e-04	0.000164835164835165
ZBTB7B	1	NA	1	Anystrength_TF_Freq_InHits	1e-04	0.000164835164835165
ZEB1	5	NA	1	Anystrength_TF_Freq_InHits	1e-04	0.000164835164835165
ZIC3	1	NA	0.0071	Anystrength_TF_Freq_InHits	0.0142	0.023027027027027
ZKSCAN3	1	NA	1	Anystrength_TF_Freq_InHits	1e-04	0.000164835164835165
ZNF143	4	NA	1	Anystrength_TF_Freq_InHits	1e-04	0.000164835164835165
ZNF143-ext	2	NA	1	Anystrength_TF_Freq_InHits	1e-04	0.000164835164835165
ZNF219	3	NA	1	Anystrength_TF_Freq_InHits	1e-04	0.000164835164835165
ZNF232	1	NA	1	Anystrength_TF_Freq_InHits	1e-04	0.000164835164835165
ZNF282	2	NA	1	Anystrength_TF_Freq_InHits	1e-04	0.000164835164835165
ZNF350	1	NA	1	Anystrength_TF_Freq_InHits	1e-04	0.000164835164835165
ZNF410	1	NA	1	Anystrength_TF_Freq_InHits	1e-04	0.000164835164835165
ZNF524	1	NA	1	Anystrength_TF_Freq_InHits	1e-04	0.000164835164835165
ZNF628	1	NA	1	Anystrength_TF_Freq_InHits	1e-04	0.000164835164835165
ZNF75A	1	NA	1	Anystrength_TF_Freq_InHits	1e-04	0.000164835164835165
ZSCAN26	1	NA	1	Anystrength_TF_Freq_InHits	1e-04	0.000164835164835165
ZSCAN4	2	NA	1	Anystrength_TF_Freq_InHits	1e-04	0.000164835164835165
p53(p53)/mES-cMyc-ChIP-Seq(GSE11431)/Homer	2	NA	1	Anystrength_TF_Freq_InHits	1e-04	0.000164835164835165
v-JUN	2	NA	1	Anystrength_TF_Freq_InHits	1e-04	0.000164835164835165
v-Maf	1	NA	1	Anystrength_TF_Freq_InHits	1e-04	0.000164835164835165
AHR::ARNT::HIF1A	1	NA	1	Strong_TF_Freq_Inhits	1e-04	0.000164835164835165
AIRE	1	NA	1	Strong_TF_Freq_Inhits	1e-04	0.000164835164835165
AP1	1	NA	1	Strong_TF_Freq_Inhits	1e-04	0.000164835164835165
ARHGEF12	1	NA	1	Strong_TF_Freq_Inhits	1e-04	0.000164835164835165
ARNT	2	NA	1	Strong_TF_Freq_Inhits	1e-04	0.000164835164835165
ARNTL	1	NA	1	Strong_TF_Freq_Inhits	1e-04	0.000164835164835165
ASCL2	1	NA	1	Strong_TF_Freq_Inhits	1e-04	0.000164835164835165
ATF1	1	NA	1	Strong_TF_Freq_Inhits	1e-04	0.000164835164835165
ATF5	2	NA	1	Strong_TF_Freq_Inhits	1e-04	0.000164835164835165
BACH2	1	NA	1	Strong_TF_Freq_Inhits	1e-04	0.000164835164835165
BATF3	1	NA	1	Strong_TF_Freq_Inhits	1e-04	0.000164835164835165
BCL6B	1	NA	1	Strong_TF_Freq_Inhits	1e-04	0.000164835164835165
BHLHE40	2	NA	1	Strong_TF_Freq_Inhits	1e-04	0.000164835164835165
BHLHE41	4	NA	1	Strong_TF_Freq_Inhits	1e-04	0.000164835164835165
CDC5L	1	NA	1	Strong_TF_Freq_Inhits	1e-04	0.000164835164835165
CEBP	2	NA	1	Strong_TF_Freq_Inhits	1e-04	0.000164835164835165
CEBP:CEBP(bZIP)/MEF-Chop-ChIP-Seq(GSE35681)/Homer	1	NA	1	Strong_TF_Freq_Inhits	1e-04	0.000164835164835165
CEBPB	1	NA	1	Strong_TF_Freq_Inhits	1e-04	0.000164835164835165
CEBPD	1	NA	1	Strong_TF_Freq_Inhits	1e-04	0.000164835164835165
CEBPG	1	NA	1	Strong_TF_Freq_Inhits	1e-04	0.000164835164835165
CENPB	1	NA	1	Strong_TF_Freq_Inhits	1e-04	0.000164835164835165
CHR(?)/Hela-CellCycle-Expression/Homer	1	NA	1	Strong_TF_Freq_Inhits	1e-04	0.000164835164835165
CLOCK	1	NA	1	Strong_TF_Freq_Inhits	1e-04	0.000164835164835165
CLOCK::ARNTL	1	NA	1	Strong_TF_Freq_Inhits	1e-04	0.000164835164835165
CREB-ext	1	NA	1	Strong_TF_Freq_Inhits	1e-04	0.000164835164835165
CREB1	3	NA	1	Strong_TF_Freq_Inhits	1e-04	0.000164835164835165
CREB3L1	1	NA	1	Strong_TF_Freq_Inhits	1e-04	0.000164835164835165
CREB3L2	3	NA	1	Strong_TF_Freq_Inhits	1e-04	0.000164835164835165
CREM	2	NA	1	Strong_TF_Freq_Inhits	1e-04	0.000164835164835165
CTCF	1	NA	0	Strong_TF_Freq_Inhits	1e-04	0.000164835164835165
CTCF-SatelliteElement(Zf?)/CD4+-CTCF-ChIP-Seq(Barski et al.)/Homer	1	NA	1	Strong_TF_Freq_Inhits	1e-04	0.000164835164835165
DBP	1	NA	1	Strong_TF_Freq_Inhits	1e-04	0.000164835164835165
DDIT3	1	NA	1	Strong_TF_Freq_Inhits	1e-04	0.000164835164835165
DDIT3::CEBPA	1	NA	1	Strong_TF_Freq_Inhits	1e-04	0.000164835164835165
E2F4	2	NA	1	Strong_TF_Freq_Inhits	1e-04	0.000164835164835165
E2F5	1	NA	1	Strong_TF_Freq_Inhits	1e-04	0.000164835164835165
E2F7	2	NA	1	Strong_TF_Freq_Inhits	1e-04	0.000164835164835165
EBF1	1	NA	1	Strong_TF_Freq_Inhits	1e-04	0.000164835164835165
EGR3	3	NA	1	Strong_TF_Freq_Inhits	1e-04	0.000164835164835165
EGR4	4	NA	1	Strong_TF_Freq_Inhits	1e-04	0.000164835164835165
ELF3	3	NA	1	Strong_TF_Freq_Inhits	1e-04	0.000164835164835165
EP300	5	NA	1	Strong_TF_Freq_Inhits	1e-04	0.000164835164835165
ESR2	1	NA	1	Strong_TF_Freq_Inhits	1e-04	0.000164835164835165
ESRRA	2	NA	1	Strong_TF_Freq_Inhits	1e-04	0.000164835164835165
ESRRB	1	NA	1	Strong_TF_Freq_Inhits	1e-04	0.000164835164835165
ESRRG	2	NA	1	Strong_TF_Freq_Inhits	1e-04	0.000164835164835165
ETS1	4	NA	1	Strong_TF_Freq_Inhits	1e-04	0.000164835164835165
ETS2	2	NA	1	Strong_TF_Freq_Inhits	1e-04	0.000164835164835165
ETS:E-box(ETS,bHLH)/HPC7-Scl-ChIP-Seq(GSE22178)/Homer	1	NA	1	Strong_TF_Freq_Inhits	1e-04	0.000164835164835165
ETV6	1	NA	1	Strong_TF_Freq_Inhits	1e-04	0.000164835164835165
ETV7	1	NA	1	Strong_TF_Freq_Inhits	1e-04	0.000164835164835165
EWS:ERG-fusion(ETS)/CADO_ES1-EWS:ERG-ChIP-Seq(SRA014231)/Homer	2	NA	1	Strong_TF_Freq_Inhits	1e-04	0.000164835164835165
EWS:FLI1-fusion(ETS)/SK_N_MC-EWS:FLI1-ChIP-Seq(SRA014231)/Homer	1	NA	1	Strong_TF_Freq_Inhits	1e-04	0.000164835164835165
FEV	2	NA	1	Strong_TF_Freq_Inhits	1e-04	0.000164835164835165
FIGLA	2	NA	1	Strong_TF_Freq_Inhits	1e-04	0.000164835164835165
FOS	1	NA	1	Strong_TF_Freq_Inhits	1e-04	0.000164835164835165
FOSL2	1	NA	1	Strong_TF_Freq_Inhits	1e-04	0.000164835164835165
FOXA1	1	NA	1	Strong_TF_Freq_Inhits	1e-04	0.000164835164835165
FOXA2	1	NA	1	Strong_TF_Freq_Inhits	1e-04	0.000164835164835165
FOXB1	2	NA	1	Strong_TF_Freq_Inhits	1e-04	0.000164835164835165
FOXD1	1	NA	1	Strong_TF_Freq_Inhits	1e-04	0.000164835164835165
FOXD3	2	NA	1	Strong_TF_Freq_Inhits	1e-04	0.000164835164835165
FOXF1	1	NA	1	Strong_TF_Freq_Inhits	1e-04	0.000164835164835165
FOXG1	1	NA	1	Strong_TF_Freq_Inhits	1e-04	0.000164835164835165
FOXI1	2	NA	1	Strong_TF_Freq_Inhits	1e-04	0.000164835164835165
FOXJ1	1	NA	1	Strong_TF_Freq_Inhits	1e-04	0.000164835164835165
FOXJ3	1	NA	0.0073	Strong_TF_Freq_Inhits	0.0146	0.0235737351991389
FOXL1	1	NA	1	Strong_TF_Freq_Inhits	1e-04	0.000164835164835165
FOXN1	1	NA	1	Strong_TF_Freq_Inhits	1e-04	0.000164835164835165
FOXO1	1	NA	0.007	Strong_TF_Freq_Inhits	0.014	0.0227272727272727
FOXO4	1	NA	1	Strong_TF_Freq_Inhits	1e-04	0.000164835164835165
FOXP1	4	NA	1	Strong_TF_Freq_Inhits	1e-04	0.000164835164835165
FOXP2	1	NA	1	Strong_TF_Freq_Inhits	1e-04	0.000164835164835165
FUBP1	1	NA	1	Strong_TF_Freq_Inhits	1e-04	0.000164835164835165
GATA2	2	NA	1	Strong_TF_Freq_Inhits	1e-04	0.000164835164835165
GATA3(Zf),DR4/iTreg-Gata3-ChIP-Seq(GSE20898)/Homer	3	NA	1	Strong_TF_Freq_Inhits	1e-04	0.000164835164835165
GCM1	1	NA	1	Strong_TF_Freq_Inhits	1e-04	0.000164835164835165
GFI1	2	NA	1	Strong_TF_Freq_Inhits	1e-04	0.000164835164835165
GFI1B	2	NA	1	Strong_TF_Freq_Inhits	1e-04	0.000164835164835165
GFY-Staf(?,Zf)/Promoter/Homer	2	NA	1	Strong_TF_Freq_Inhits	1e-04	0.000164835164835165
GLI2	2	NA	1	Strong_TF_Freq_Inhits	1e-04	0.000164835164835165
GTF3C2	1	NA	1	Strong_TF_Freq_Inhits	1e-04	0.000164835164835165
HDAC2	2	NA	1	Strong_TF_Freq_Inhits	1e-04	0.000164835164835165
HDX	1	NA	1	Strong_TF_Freq_Inhits	1e-04	0.000164835164835165
HESX1	1	NA	1	Strong_TF_Freq_Inhits	1e-04	0.000164835164835165
HEY1	2	NA	1	Strong_TF_Freq_Inhits	1e-04	0.000164835164835165
HF1H3B	2	NA	1	Strong_TF_Freq_Inhits	1e-04	0.000164835164835165
HINFP	1	NA	1	Strong_TF_Freq_Inhits	1e-04	0.000164835164835165
HOXC6	1	NA	1	Strong_TF_Freq_Inhits	1e-04	0.000164835164835165
HOXD13	1	NA	1	Strong_TF_Freq_Inhits	1e-04	0.000164835164835165
ID4	1	NA	1	Strong_TF_Freq_Inhits	1e-04	0.000164835164835165
IKZF1	1	NA	1	Strong_TF_Freq_Inhits	1e-04	0.000164835164835165
IKZF3	1	NA	1	Strong_TF_Freq_Inhits	1e-04	0.000164835164835165
IRF	2	NA	1	Strong_TF_Freq_Inhits	1e-04	0.000164835164835165
IRF4	1	NA	0.0072	Strong_TF_Freq_Inhits	0.0144	0.0233261339092873
IRF9	2	NA	1	Strong_TF_Freq_Inhits	1e-04	0.000164835164835165
IRX3	1	NA	1	Strong_TF_Freq_Inhits	1e-04	0.000164835164835165
ITGB2	1	NA	1	Strong_TF_Freq_Inhits	1e-04	0.000164835164835165
JUN	1	NA	1	Strong_TF_Freq_Inhits	1e-04	0.000164835164835165
KLF1	1	NA	1	Strong_TF_Freq_Inhits	1e-04	0.000164835164835165
KLF14	1	NA	1	Strong_TF_Freq_Inhits	1e-04	0.000164835164835165
KLF4	2	NA	1	Strong_TF_Freq_Inhits	1e-04	0.000164835164835165
KLF7	1	NA	1	Strong_TF_Freq_Inhits	1e-04	0.000164835164835165
LEF1	1	NA	1	Strong_TF_Freq_Inhits	1e-04	0.000164835164835165
LMO2	1	NA	1	Strong_TF_Freq_Inhits	1e-04	0.000164835164835165
MAFB	1	NA	1	Strong_TF_Freq_Inhits	1e-04	0.000164835164835165
MAX	1	NA	1	Strong_TF_Freq_Inhits	1e-04	0.000164835164835165
MEF2	1	NA	1	Strong_TF_Freq_Inhits	1e-04	0.000164835164835165
MEF2A	3	NA	1	Strong_TF_Freq_Inhits	1e-04	0.000164835164835165
MEF2B	1	NA	1	Strong_TF_Freq_Inhits	1e-04	0.000164835164835165
MEF2C	3	NA	1	Strong_TF_Freq_Inhits	1e-04	0.000164835164835165
MEF2D	2	NA	1	Strong_TF_Freq_Inhits	1e-04	0.000164835164835165
MEIS1	1	NA	1	Strong_TF_Freq_Inhits	1e-04	0.000164835164835165
MEOX2	1	NA	1	Strong_TF_Freq_Inhits	1e-04	0.000164835164835165
MESP1	1	NA	1	Strong_TF_Freq_Inhits	1e-04	0.000164835164835165
MLX	2	NA	1	Strong_TF_Freq_Inhits	1e-04	0.000164835164835165
MLXIPL	2	NA	1	Strong_TF_Freq_Inhits	1e-04	0.000164835164835165
MSX2	1	NA	1	Strong_TF_Freq_Inhits	1e-04	0.000164835164835165
MTF1	2	NA	1	Strong_TF_Freq_Inhits	1e-04	0.000164835164835165
MYC::MAX	1	NA	1	Strong_TF_Freq_Inhits	1e-04	0.000164835164835165
MYCN	1	NA	1	Strong_TF_Freq_Inhits	1e-04	0.000164835164835165
MYEF2	4	NA	1	Strong_TF_Freq_Inhits	1e-04	0.000164835164835165
MYF	1	NA	1	Strong_TF_Freq_Inhits	1e-04	0.000164835164835165
MYF5	1	NA	1	Strong_TF_Freq_Inhits	1e-04	0.000164835164835165
MYOD1	1	NA	1	Strong_TF_Freq_Inhits	1e-04	0.000164835164835165
MZF1	3	NA	1	Strong_TF_Freq_Inhits	1e-04	0.000164835164835165
NFE2	1	NA	1	Strong_TF_Freq_Inhits	1e-04	0.000164835164835165
NFE2L2	2	NA	1	Strong_TF_Freq_Inhits	1e-04	0.000164835164835165
NFIA	2	NA	1	Strong_TF_Freq_Inhits	1e-04	0.000164835164835165
NFIB	2	NA	1	Strong_TF_Freq_Inhits	1e-04	0.000164835164835165
NFKB1	2	NA	1	Strong_TF_Freq_Inhits	1e-04	0.000164835164835165
NFKB2	1	NA	1	Strong_TF_Freq_Inhits	1e-04	0.000164835164835165
NFY	1	NA	1	Strong_TF_Freq_Inhits	1e-04	0.000164835164835165
NFYA	1	NA	1	Strong_TF_Freq_Inhits	1e-04	0.000164835164835165
NFYB	1	NA	1	Strong_TF_Freq_Inhits	1e-04	0.000164835164835165
NHLH1	3	NA	1	Strong_TF_Freq_Inhits	1e-04	0.000164835164835165
NKX2-2	3	NA	1	Strong_TF_Freq_Inhits	1e-04	0.000164835164835165
NKX2-3	1	NA	1	Strong_TF_Freq_Inhits	1e-04	0.000164835164835165
NKX2-5	2	NA	1	Strong_TF_Freq_Inhits	1e-04	0.000164835164835165
NKX3-1	1	NA	1	Strong_TF_Freq_Inhits	1e-04	0.000164835164835165
NKX3-2	1	NA	1	Strong_TF_Freq_Inhits	1e-04	0.000164835164835165
NPAS2	1	NA	1	Strong_TF_Freq_Inhits	1e-04	0.000164835164835165
NR1D1	1	NA	1	Strong_TF_Freq_Inhits	1e-04	0.000164835164835165
NR1H2	1	NA	1	Strong_TF_Freq_Inhits	1e-04	0.000164835164835165
NR2C2	2	NA	1	Strong_TF_Freq_Inhits	1e-04	0.000164835164835165
NR2E1::NFIC	2	NA	1	Strong_TF_Freq_Inhits	1e-04	0.000164835164835165
NR2E3	1	NA	1	Strong_TF_Freq_Inhits	1e-04	0.000164835164835165
NR2F2	2	NA	1	Strong_TF_Freq_Inhits	1e-04	0.000164835164835165
NR5A2	1	NA	1	Strong_TF_Freq_Inhits	1e-04	0.000164835164835165
OCT4-SOX2-TCF-NANOG(POU,Homeobox,HMG)/mES-Oct4-ChIP-Seq(GSE11431)/Homer	1	NA	1	Strong_TF_Freq_Inhits	1e-04	0.000164835164835165
OLIG2	1	NA	1	Strong_TF_Freq_Inhits	1e-04	0.000164835164835165
Oct4:Sox17(POU,Homeobox,HMG)/F9-Sox17-ChIP-Seq(GSE44553)/Homer	1	NA	1	Strong_TF_Freq_Inhits	1e-04	0.000164835164835165
PATZ1	2	NA	1	Strong_TF_Freq_Inhits	1e-04	0.000164835164835165
PAX5(Paired,Homeobox),condensed/GM12878-PAX5-ChIP-Seq(GSE32465)/Homer	1	NA	1	Strong_TF_Freq_Inhits	1e-04	0.000164835164835165
PKNOX1	1	NA	1	Strong_TF_Freq_Inhits	1e-04	0.000164835164835165
PLAGL1	1	NA	1	Strong_TF_Freq_Inhits	1e-04	0.000164835164835165
POU1F1	2	NA	1	Strong_TF_Freq_Inhits	1e-04	0.000164835164835165
POU2F1	3	NA	1	Strong_TF_Freq_Inhits	1e-04	0.000164835164835165
POU2F2	2	NA	1	Strong_TF_Freq_Inhits	1e-04	0.000164835164835165
POU2F3	1	NA	1	Strong_TF_Freq_Inhits	1e-04	0.000164835164835165
POU3F1	2	NA	1	Strong_TF_Freq_Inhits	1e-04	0.000164835164835165
POU3F2	3	NA	1	Strong_TF_Freq_Inhits	1e-04	0.000164835164835165
POU3F3	1	NA	1	Strong_TF_Freq_Inhits	1e-04	0.000164835164835165
POU3F4	1	NA	1	Strong_TF_Freq_Inhits	1e-04	0.000164835164835165
POU4F2	1	NA	1	Strong_TF_Freq_Inhits	1e-04	0.000164835164835165
POU5F1	2	NA	1	Strong_TF_Freq_Inhits	1e-04	0.000164835164835165
POU5F1B	2	NA	1	Strong_TF_Freq_Inhits	1e-04	0.000164835164835165
POU6F1	1	NA	1	Strong_TF_Freq_Inhits	1e-04	0.000164835164835165
PPARA	2	NA	1	Strong_TF_Freq_Inhits	1e-04	0.000164835164835165
PRDM1	1	NA	0.0076	Strong_TF_Freq_Inhits	0.0152	0.0244635193133047
PRDM14	1	NA	1	Strong_TF_Freq_Inhits	1e-04	0.000164835164835165
Pax7(Paired,Homeobox),longest/Myoblast-Pax7-ChIP-Seq(GSE25064)/Homer	1	NA	1	Strong_TF_Freq_Inhits	1e-04	0.000164835164835165
RAD21	2	NA	1	Strong_TF_Freq_Inhits	1e-04	0.000164835164835165
RARB	4	NA	1	Strong_TF_Freq_Inhits	1e-04	0.000164835164835165
RARG	6	NA	1	Strong_TF_Freq_Inhits	1e-04	0.000164835164835165
REL	1	NA	1	Strong_TF_Freq_Inhits	1e-04	0.000164835164835165
RELA	1	NA	1	Strong_TF_Freq_Inhits	1e-04	0.000164835164835165
REST	1	NA	0.0073	Strong_TF_Freq_Inhits	0.0146	0.0235737351991389
RFX2	3	NA	1	Strong_TF_Freq_Inhits	1e-04	0.000164835164835165
RFX3	3	NA	1	Strong_TF_Freq_Inhits	1e-04	0.000164835164835165
RFX5	1	NA	1	Strong_TF_Freq_Inhits	1e-04	0.000164835164835165
RUNX2	1	NA	1	Strong_TF_Freq_Inhits	1e-04	0.000164835164835165
RUNX3	2	NA	1	Strong_TF_Freq_Inhits	1e-04	0.000164835164835165
RXRB	1	NA	1	Strong_TF_Freq_Inhits	1e-04	0.000164835164835165
SCRT1	1	NA	1	Strong_TF_Freq_Inhits	1e-04	0.000164835164835165
SIX5	2	NA	1	Strong_TF_Freq_Inhits	1e-04	0.000164835164835165
SMAD	1	NA	1	Strong_TF_Freq_Inhits	1e-04	0.000164835164835165
SMAD1	1	NA	1	Strong_TF_Freq_Inhits	1e-04	0.000164835164835165
SMAD3	2	NA	1	Strong_TF_Freq_Inhits	1e-04	0.000164835164835165
SMAD4	1	NA	1	Strong_TF_Freq_Inhits	1e-04	0.000164835164835165
SOX1	2	NA	1	Strong_TF_Freq_Inhits	1e-04	0.000164835164835165
SOX11	2	NA	1	Strong_TF_Freq_Inhits	1e-04	0.000164835164835165
SOX14	1	NA	1	Strong_TF_Freq_Inhits	1e-04	0.000164835164835165
SOX15	2	NA	1	Strong_TF_Freq_Inhits	1e-04	0.000164835164835165
SOX17	2	NA	1	Strong_TF_Freq_Inhits	1e-04	0.000164835164835165
SOX18	2	NA	1	Strong_TF_Freq_Inhits	1e-04	0.000164835164835165
SOX2	2	NA	1	Strong_TF_Freq_Inhits	1e-04	0.000164835164835165
SOX2-OCT4	1	NA	1	Strong_TF_Freq_Inhits	1e-04	0.000164835164835165
SOX21	2	NA	1	Strong_TF_Freq_Inhits	1e-04	0.000164835164835165
SOX3	1	NA	1	Strong_TF_Freq_Inhits	1e-04	0.000164835164835165
SOX7	1	NA	1	Strong_TF_Freq_Inhits	1e-04	0.000164835164835165
SP2	2	NA	1	Strong_TF_Freq_Inhits	1e-04	0.000164835164835165
SP3	1	NA	0.0069	Strong_TF_Freq_Inhits	0.0138	0.0224511930585683
SPDEF	3	NA	1	Strong_TF_Freq_Inhits	1e-04	0.000164835164835165
SPI1	2	NA	0.0039	Strong_TF_Freq_Inhits	0.0078	0.0127589967284624
SPIB	2	NA	1	Strong_TF_Freq_Inhits	1e-04	0.000164835164835165
SREBF	1	NA	1	Strong_TF_Freq_Inhits	1e-04	0.000164835164835165
SREBF1	7	NA	1	Strong_TF_Freq_Inhits	1e-04	0.000164835164835165
SREBF2	3	NA	1	Strong_TF_Freq_Inhits	1e-04	0.000164835164835165
SRF	2	NA	1	Strong_TF_Freq_Inhits	1e-04	0.000164835164835165
SRY	1	NA	1	Strong_TF_Freq_Inhits	1e-04	0.000164835164835165
STAT	1	NA	1	Strong_TF_Freq_Inhits	1e-04	0.000164835164835165
STAT3	6	NA	1	Strong_TF_Freq_Inhits	1e-04	0.000164835164835165
STAT4	1	NA	1	Strong_TF_Freq_Inhits	1e-04	0.000164835164835165
STAT5A	1	NA	1	Strong_TF_Freq_Inhits	1e-04	0.000164835164835165
STAT5B	1	NA	1	Strong_TF_Freq_Inhits	1e-04	0.000164835164835165
Stat3+il21(Stat)/CD4-Stat3-ChIP-Seq(GSE19198)/Homer	1	NA	1	Strong_TF_Freq_Inhits	1e-04	0.000164835164835165
T	1	NA	0.0076	Strong_TF_Freq_Inhits	0.0152	0.0244635193133047
T1ISRE(IRF)/ThioMac-Ifnb-Expression/Homer	1	NA	1	Strong_TF_Freq_Inhits	1e-04	0.000164835164835165
TAF1	3	NA	1	Strong_TF_Freq_Inhits	1e-04	0.000164835164835165
TBX1	3	NA	1	Strong_TF_Freq_Inhits	1e-04	0.000164835164835165
TBX5	1	NA	1	Strong_TF_Freq_Inhits	1e-04	0.000164835164835165
TCF3	5	NA	1	Strong_TF_Freq_Inhits	1e-04	0.000164835164835165
TCF4	1	NA	1	Strong_TF_Freq_Inhits	1e-04	0.000164835164835165
TCF7	1	NA	1	Strong_TF_Freq_Inhits	1e-04	0.000164835164835165
TCF7L1	1	NA	1	Strong_TF_Freq_Inhits	1e-04	0.000164835164835165
TCF7L2	1	NA	1	Strong_TF_Freq_Inhits	1e-04	0.000164835164835165
TCFL2(HMG)/K562-TCF7L2-ChIP-Seq(GSE29196)/Homer	1	NA	1	Strong_TF_Freq_Inhits	1e-04	0.000164835164835165
TEAD(TEA)/Fibroblast-PU.1-ChIP-Seq(Unpublished)/Homer	2	NA	1	Strong_TF_Freq_Inhits	1e-04	0.000164835164835165
TEAD1	2	NA	1	Strong_TF_Freq_Inhits	1e-04	0.000164835164835165
TEAD2	1	NA	1	Strong_TF_Freq_Inhits	1e-04	0.000164835164835165
TEAD3	2	NA	1	Strong_TF_Freq_Inhits	1e-04	0.000164835164835165
TEAD4	1	NA	1	Strong_TF_Freq_Inhits	1e-04	0.000164835164835165
TFAP4	1	NA	1	Strong_TF_Freq_Inhits	1e-04	0.000164835164835165
TFEB	2	NA	1	Strong_TF_Freq_Inhits	1e-04	0.000164835164835165
TFEC	1	NA	1	Strong_TF_Freq_Inhits	1e-04	0.000164835164835165
THAP1	1	NA	1	Strong_TF_Freq_Inhits	1e-04	0.000164835164835165
THRA	2	NA	1	Strong_TF_Freq_Inhits	1e-04	0.000164835164835165
THRB	3	NA	1	Strong_TF_Freq_Inhits	1e-04	0.000164835164835165
Tbox:Smad(T-box,MAD)/ESCd5-Smad2_3-ChIP-Seq(GSE29422)/Homer	1	NA	1	Strong_TF_Freq_Inhits	1e-04	0.000164835164835165
UA1	1	NA	1	Strong_TF_Freq_Inhits	1e-04	0.000164835164835165
UA12	1	NA	1	Strong_TF_Freq_Inhits	1e-04	0.000164835164835165
UA3	1	NA	1	Strong_TF_Freq_Inhits	1e-04	0.000164835164835165
UA5	2	NA	1	Strong_TF_Freq_Inhits	1e-04	0.000164835164835165
USF	1	NA	1	Strong_TF_Freq_Inhits	1e-04	0.000164835164835165
USF1	2	NA	1	Strong_TF_Freq_Inhits	1e-04	0.000164835164835165
USF2	1	NA	1	Strong_TF_Freq_Inhits	1e-04	0.000164835164835165
VDR	1	NA	1	Strong_TF_Freq_Inhits	1e-04	0.000164835164835165
WT1	2	NA	1	Strong_TF_Freq_Inhits	1e-04	0.000164835164835165
YY1	3	NA	1	Strong_TF_Freq_Inhits	1e-04	0.000164835164835165
ZBTB18	1	NA	1	Strong_TF_Freq_Inhits	1e-04	0.000164835164835165
ZBTB7A	4	NA	1	Strong_TF_Freq_Inhits	1e-04	0.000164835164835165
ZBTB7B	1	NA	1	Strong_TF_Freq_Inhits	1e-04	0.000164835164835165
ZEB1	5	NA	1	Strong_TF_Freq_Inhits	1e-04	0.000164835164835165
ZKSCAN3	1	NA	1	Strong_TF_Freq_Inhits	1e-04	0.000164835164835165
ZNF143	3	NA	1	Strong_TF_Freq_Inhits	1e-04	0.000164835164835165
ZNF143-ext	1	NA	1	Strong_TF_Freq_Inhits	1e-04	0.000164835164835165
ZNF219	1	NA	1	Strong_TF_Freq_Inhits	1e-04	0.000164835164835165
ZNF232	1	NA	1	Strong_TF_Freq_Inhits	1e-04	0.000164835164835165
ZNF282	2	NA	1	Strong_TF_Freq_Inhits	1e-04	0.000164835164835165
ZNF350	1	NA	1	Strong_TF_Freq_Inhits	1e-04	0.000164835164835165
ZNF410	1	NA	1	Strong_TF_Freq_Inhits	1e-04	0.000164835164835165
ZNF524	1	NA	1	Strong_TF_Freq_Inhits	1e-04	0.000164835164835165
ZNF740	2	NA	1	Strong_TF_Freq_Inhits	1e-04	0.000164835164835165
ZNF75A	1	NA	1	Strong_TF_Freq_Inhits	1e-04	0.000164835164835165
ZSCAN26	1	NA	1	Strong_TF_Freq_Inhits	1e-04	0.000164835164835165
ZSCAN4	1	NA	1	Strong_TF_Freq_Inhits	1e-04	0.000164835164835165
p53(p53)/mES-cMyc-ChIP-Seq(GSE11431)/Homer	2	NA	1	Strong_TF_Freq_Inhits	1e-04	0.000164835164835165
v-Maf	1	NA	1	Strong_TF_Freq_Inhits	1e-04	0.000164835164835165
